<?xml version="1.0" encoding="utf-8"?>
<!-- Generator: Adobe Illustrator 25.0.0, SVG Export Plug-In . SVG Version: 6.00 Build 0)  -->
<svg version="1.1" id="Layer_1" xmlns="http://www.w3.org/2000/svg" xmlns:xlink="http://www.w3.org/1999/xlink" x="0px" y="0px"
	 viewBox="0 0 1920 1080" style="enable-background:new 0 0 1920 1080;" xml:space="preserve">
<style type="text/css">
	.st0{fill:#DEEDF9;}
	.st1{fill:#98B7E0;}
	.st2{fill:#3B4596;}
	.st3{fill:#059FA0;}
	.st4{fill:#F8A82B;}
	.st5{fill:#F8C575;}
	.st6{fill:#FFFFFF;}
	.st7{fill:#E2E9F6;}
	.st8{fill:#BED2ED;}
	.st9{fill:#302718;}
	.st10{fill:#5A1D10;}
	.st11{fill:#4B559E;}
	.st12{fill:#283777;}
	.st13{fill:#30499C;}
	.st14{fill:#5C72B7;}
	.st15{fill:#3C5697;}
	.st16{fill-rule:evenodd;clip-rule:evenodd;fill:#E2E9F6;}
</style>
<rect x="91.99" y="113.89" class="st0" width="1664.1" height="540.19"/>
<rect class="st0" width="1920" height="1080"/>
<path class="st1" d="M1647.76,635.68c-6.05-10.23-12.87-19.99-20.71-28.76c-2.04-2.3-4.16-4.52-6.35-6.67
	c-7.88-7.77-16.72-14.55-26.69-19.95c-12.18-6.59-25.8-11.05-39.67-12.28c-4.53-0.4-9.1-0.45-13.63-0.12
	c-4.73,0.34-9.25,1.17-13.68,2.34c-4.12,1.1-8.19,2.46-12.28,4c-4.89,1.83-10.86,4.33-15.68,1.2c-3.46-2.24-5.43-7.14-8.35-10.12
	c-10.11-10.37-26.44-14.01-40.2-9.79c-8.13,2.5-13.35,7.84-19.61,13.21c-7.83,6.72-14.88,5.39-21.7-1.72
	c-10.68-11.15-17.17-24.68-33.35-28.8c-16.19-4.14-33.72,1.54-47.76,9.58c-14.72,8.44-27.6,20.18-38.31,33.81v62.5h197.29
	c0.87,0.12,1.74,0.25,2.6,0.39c13.38-0.18,26.76-0.29,40.16-0.32c0.45,0.11,4.29-0.03,5.57-0.03c0.18,0,0.34-0.01,0.51-0.04h116.61
	C1650.98,641.26,1649.4,638.46,1647.76,635.68z"/>
<rect x="1188.56" y="533.42" class="st2" width="5.96" height="14.57"/>
<rect x="1292.02" y="522.38" class="st3" width="6.4" height="13.9"/>
<polygon class="st4" points="1246.28,530.17 1261.17,581.15 1261.17,642.39 1209.55,642.39 1209.55,582.8 "/>
<polygon class="st2" points="1246.28,530.17 1309.29,530.17 1328.35,582.14 1261.17,582.14 "/>
<polygon class="st2" points="1099.03,642.39 1099.03,593.07 1129.47,544.07 1145.69,593.23 1145.69,642.39 "/>
<rect x="1145.69" y="593.23" class="st5" width="79.75" height="49.16"/>
<polygon class="st3" points="1129.47,544.07 1211.87,544.07 1225.44,593.23 1145.69,593.23 "/>
<path class="st2" d="M1261.17,582.14"/>
<polyline class="st5" points="1261.17,582.14 1328.35,582.14 1328.35,642.39 1261.17,642.39 1261.17,582.14 "/>
<path class="st6" d="M1301.27,498.52c0,0-7.94,6.12-5.63,14.4c2.32,8.28,8.77,3.48,9.43-1.99c0.66-5.46,1.82-9.1,6.45-6.95
	c4.63,2.15,27.8,18.21,34.08,4.63c6.29-13.57,0.83-22.68,13.4-26.48s35.57-12.25,21.01-25.66c-14.56-13.41-25.31-6.95-38.22,9.77
	s-18.86-2.65-25.48,5.46S1318.97,491.74,1301.27,498.52z"/>
<path class="st6" d="M1184.37,499.52c0,0-10.26,5.63-5.79,12.74c4.47,7.12,16.55,15.23,18.2,5.96c1.65-9.27,0.99-9.77,14.23-8.11
	s32.1-1.16,29.45-11.75s7.61-8.28,13.07-7.94c5.46,0.33,15.55-15.56,8.77-24.17c-6.78-8.61-20.02-17.38-29.45-0.66
	c-9.43,16.72-11.91,11.75-21.01,10.43c-9.1-1.32-17.54,0.99-18.37,10.59S1194.46,501.01,1184.37,499.52z"/>
<path class="st7" d="M1758.83,654.08v363.36H141.61c-3.42-4.25-9.55-8.17-16.74-11.61c-10.98-5.25-25.88-9.3-34.63-15.24
	c-4.49-3.05-7.31-6.63-5.83-10.16c1.37-3.26,6-6.1,9.98-8.96c3.71-2.67,6.74-5.42,6.73-8.51c-0.01-2.62-2.35-5.17-8.1-6.67
	c-0.75-0.2-1.4,0.29-0.66,0.48c5.89,1.54,7.7,4.3,7.31,6.93c-0.44,2.99-3.8,5.6-7.44,8.18c-3.78,2.67-7.89,5.37-9.17,8.43
	c-1.26,2.99,0.4,6.03,3.61,8.76c7.23,6.15,21.48,10.26,32.85,15.16c8.85,3.81,16.62,8.27,20.66,13.21H78.52V654.08H1758.83z"/>
<path class="st6" d="M1303.39,633.56v21.43h-270.72V655H634.34c-0.75-2.02-0.68-4.05,0.54-5.95c0.75-1.17,1.81-1.99,3.08-2.53
	c3.85-1.66,9.74-0.72,15.44,0.98c0.58,0.17,1.16,0.35,1.73,0.54c0.24-0.11,0.47-0.22,0.7-0.33c4.61-2.11,9.23-4.21,13.96-6.25
	c0.69-0.31,1.39-0.61,2.1-0.91c1.64-0.7,3.31-1.4,5-2.09c22.27-9.11,48.15-16.9,78.14-17.08c12.66-0.08,25.66,1.14,36.9,4.04
	c0.96,0.25,1.91,0.51,2.85,0.79c5.69,1.66,10.74,3.76,14.94,6.25c2.52,1.5,5.13,3.83,9.58,3.74c4-0.07,8.53-2.03,11.85-3.04
	c12.06-3.67,26.17-8.21,41.09-7.7c0.34,0.01,0.69,0.03,1.03,0.04c3.68,0.18,7.23,0.7,10.51,1.53c3.62,0.92,6.73,2.44,10.88,2.73
	c5.31,0.38,10.64-1.08,15.3-2.13c4.29-0.97,8.56-1.97,12.83-2.97c31.9-7.48,65.75-15.52,102.17-14.08c0.08,0,0.16,0.01,0.25,0.01
	c0,0.08-0.01,0.15-0.01,0.23c1.89-0.01,3.77,0.01,5.64,0.06c0,0,0.01,0,0.01,0c22.47,0.65,43.7,5.94,63.76,10.57
	c12.61,2.91,25.73,5.93,39.56,7.13c7.22,0.63,14.54,0.56,21.5-0.63c6.45-1.1,12.27-2.88,18.42-4.31
	c23.51-5.46,50.94-5.08,75.55-1.68C1268.56,624.58,1286.27,628.84,1303.39,633.56z"/>
<path class="st6" d="M1849.1,633.56v21.43h-270.72V655h-398.32c-0.75-2.02-0.68-4.05,0.54-5.95c0.75-1.17,1.81-1.99,3.08-2.53
	c3.85-1.66,9.74-0.72,15.44,0.98c0.58,0.17,1.16,0.35,1.73,0.54c0.24-0.11,0.47-0.22,0.7-0.33c4.61-2.11,9.23-4.21,13.96-6.25
	c0.69-0.31,1.39-0.61,2.1-0.91c1.64-0.7,3.31-1.4,5-2.09c22.27-9.11,48.15-16.9,78.14-17.08c12.66-0.08,25.66,1.14,36.9,4.04
	c0.96,0.25,1.91,0.51,2.85,0.79c5.69,1.66,10.74,3.76,14.94,6.25c2.52,1.5,5.13,3.83,9.58,3.74c4-0.07,8.53-2.03,11.85-3.04
	c12.06-3.67,26.17-8.21,41.09-7.7c0.34,0.01,0.69,0.03,1.03,0.04c3.68,0.18,7.23,0.7,10.51,1.53c3.62,0.92,6.73,2.44,10.88,2.73
	c5.31,0.38,10.64-1.08,15.3-2.13c4.29-0.97,8.56-1.97,12.83-2.97c31.9-7.48,65.75-15.52,102.17-14.08c0.08,0,0.16,0.01,0.25,0.01
	c0,0.08-0.01,0.15-0.01,0.23c1.89-0.01,3.77,0.01,5.64,0.06c0,0,0.01,0,0.01,0c22.47,0.65,43.7,5.94,63.76,10.57
	c12.61,2.91,25.73,5.93,39.56,7.13c7.22,0.63,14.54,0.56,21.5-0.63c6.45-1.1,12.27-2.88,18.42-4.31
	c23.51-5.46,50.94-5.08,75.55-1.68C1814.27,624.58,1831.98,628.84,1849.1,633.56z"/>
<path class="st8" d="M719.49,655H590.85c-0.16,0.03-0.33,0.04-0.51,0.04c-1.28,0-5.11,0.14-5.57,0.03
	c-13.39,0.03-26.78,0.14-40.15,0.32c-0.87-0.14-1.74-0.26-2.61-0.39H344.73v-55.68c1.62-0.36,3.27-0.69,4.92-0.96
	c14.77-2.54,30.03-2.3,44.59,1.38c7.83,1.96,15.08,5.16,22.38,8.48c11.49,5.22,21.52,6.37,33.73,2.72
	c16.91-5.03,32.91-11.38,50.94-10.13c7.3,0.51,14.55,2.13,21.1,5.49c7.54,3.86,12.11,9.89,17.73,15.95c5,5.38,10.96,7.22,17.39,8.44
	c10.42,1.98,21.11,2.77,31.74,1.91c6.74-0.54,13.34-2.17,20.07-2.64c3.33-0.23,8.89-0.65,12.22-0.49c6.74,0.3,11.26,1.59,18,2.24
	c2.89,0.28,5.8,0.59,8.69,0.95c3.98,0.48,7.95,1.06,11.89,1.75c1.09,0.18,2.16,0.37,3.24,0.58c13.53,2.53,26.8,6.26,39.33,11.6
	C708.48,649.03,714.09,651.82,719.49,655z"/>
<path class="st6" d="M988.3,618.01c-2.99-5.36-7.59-9.86-13.08-12.51c-2.62-1.26-7.06-1.26-9.25-2.69c-3.91-2.57-3.5-7.04-4.31-11
	c-1.25-5.98-3.91-11.89-8.1-16.4c-0.5-0.54-1.02-1.06-1.56-1.54c-3.13-2.83-6.95-4.77-11.2-5.27c-2.4-0.27-6.31,1.17-8.1-0.67
	c-1.64-1.68-1.68-7.88-2.43-10.35c-3.33-11.21-11.02-20.45-23.76-16.53c-3.45,1.06-7.73,4.17-11.48,3.45
	c-4.91-0.93-2.76-4.98-3.94-8.7c-1.6-4.99-6.67-7.81-11.74-7.74c-6.68,0.11-11.52,5.18-15.12,10.24
	c-5.47,7.71-10.23,16.03-14.4,24.53c-1.76,3.59-3.42,7.25-4.95,10.96c-1.86,4.41-3.54,8.91-5.09,13.45
	c-2.04,5.99-9.25,26.82-19.15,16.57c-1.69-1.77-5.48-1.35-6.45,1.07c-3.75,9.34-3.17,17.81,0.18,25.13
	c4.62,10.15,14.54,18.05,25.6,22.96c0.03,0.71,0.22,1.42,0.58,2.03h90.91c9.94-0.49,19.87-1.07,29.81-1.76
	c13.3-0.92,28.35-1.48,30.58-17.72C992.68,629.47,991.28,623.32,988.3,618.01z"/>
<path class="st6" d="M593.67,646.72c-0.56-0.18-0.83-1.18-1.46-1.54c-38.1-22.01-79.33-32.37-120.52-29.11
	c-19.53,1.56-39.43,7.12-58.95,2.93c-9.6-2.07-18.05-6.93-26.06-14.54c-7.14-6.8-13.82-9.74-22.89-10.33
	c-5.91-0.38-11.06-0.86-19.06,8.22v53.66h197.29c0.87,0.17,1.74,0.35,2.6,0.54c13.38-0.25,26.76-0.41,40.16-0.44
	c0.57-0.02,1.14-0.02,1.72-0.02c1.28-0.02,2.56-0.02,3.84-0.02c0.18,0,0.34-0.02,0.51-0.06
	C593.82,655.42,624.19,656.47,593.67,646.72z"/>
<g>
	<path class="st6" d="M1102.06,500.95c1.14-7.35-1.48-15.1-6.44-20.56c-9.76-10.75-25.54-9.42-34.98-0.27
		c-1.96-2.67-4.88-4.7-8.27-5.61c-8.39-2.26-16.42,3.2-21.88,9.02c-11.9,12.66-16.94,30.19-16.89,47.25
		c0.03,8.95,1.45,17.72,3.97,26.29c1.41,4.79,3.77,10.08,2.96,15.2c-0.81,5.07-5.58,8.54-8.11,12.8
		c-6.95,11.7-5.76,26.15,1.42,37.09c6.7,15.24,27.37,11.86,39.45,4.73c16.61-9.8,32.14-23.22,41.74-40.13
		c9.32-16.41,12.57-36.01,6.44-54.09c-1.9-5.59-5.13-11.47-4.13-17.55C1098.14,510.19,1101.28,505.92,1102.06,500.95z"/>
	<path class="st9" d="M1058.39,594.47c-4.46,6.62-9.81,12.57-15.93,17.7c-0.15-3.46-0.18-6.9,0.44-10.43
		c1.09-6.13,3.29-11.99,5.49-17.79c0.3-0.8-0.64-1.4-1.2-1.05c-0.01,0-0.01,0-0.02,0c-2.17,0.57-3.46,2.39-4.28,4.37
		c-1.11,2.68-1.71,5.61-2.45,8.4c-0.19,0.71-0.37,1.42-0.56,2.13c-4.26-5.62-7.51-11.9-9.63-18.65c-0.32-1-1.84-0.4-1.53,0.6
		c2.29,7.28,5.9,14.07,10.64,20.05c-1.27,4.96-2.45,9.93-3.54,14.93c-2.81,12.88-5.02,25.89-6.64,38.97
		c-0.09,0.73,0.68,1.08,1.19,0.87c0.14,0.12,0.34,0.18,0.58,0.15l3.93-0.52c0.98-0.13,2.17-0.12,3.03-0.67
		c1.58-1,1.08-3.15,1.04-4.72c-0.15-5.3,1.01-10.53,2.05-15.7c0.99-4.91,1.88-9.84,1.73-14.87c-0.04-1.48-0.12-2.94-0.19-4.4
		c0.21,0.06,0.44,0.03,0.66-0.16c6.33-5.26,11.87-11.36,16.46-18.18C1060.25,594.63,1058.98,593.6,1058.39,594.47z"/>
</g>
<path class="st6" d="M677.69,653.81c-3.4-1.79-6.9-3.61-10.77-4.08c-1.28-0.16-2.38-0.09-3.4-1c-0.55-0.49-0.99-1.06-1.59-1.51
	c-1.45-1.08-3.18-1.76-4.94-2.15c-1.38-0.31-2.92-0.53-4.24,0.12c-0.22,0.11-0.55,0.5-0.76,0.5c-0.75,0.01-0.65-1.12-0.8-1.54
	c-0.16-0.45-0.44-0.88-0.84-1.15c-2.16-1.44-3.9,2.28-4.66,4.65c-0.31-0.38-0.65-0.71-1.23-0.78c-0.75-0.09-1.35,0.3-1.66,0.97
	c-0.89,1.87-0.14,4.78,0.56,6.57c0.17,0.45,0.6,0.6,0.98,0.53c0.04,0.02,0.08,0.04,0.12,0.05h33.42
	C678.19,654.64,678.23,654.09,677.69,653.81z"/>
<path class="st6" d="M1736.04,702.74v6.33c-207.86,0.37-1433.26,0.61-1691.14,0.81c38.83-0.88,77.53-2.38,115.84-4.75
	c1.08-0.07,1.68-0.45,1.75-0.79c0.01-0.05,0.02-0.09,0.02-0.14C370.03,703.7,1534.96,703.2,1736.04,702.74z"/>
<path class="st6" d="M717.62,911.32c-25.64,17.09-58.7,23.69-95.08,27.75c-39.84,4.43-96.31,7.34-136.52,10.03
	c-83.06,5.56-296.76-1.34-389.03-0.15v-7.82c67.6,0.33,250.49,2.33,268.52,2.06c79.08-1.18,81.24-0.41,166.63-7.08
	c39.16-3.06,67.05-7.83,104.5-15.93c17.3-3.75,35-7.93,49.9-14.76c11.6-5.32,26.36-21.84,16.95-34.23
	c-14.07-18.53-55.22-26.59-85.54-32.36c-36.96-7.03-76.03-10.57-114.25-13.67c-41.77-3.4-83.84-5.37-125.95-5.89
	c-36.82-0.45-73.65,0.47-110.47-0.23c-20.04-0.37-100.05-2.25-170.3-5.01v-31.19c3.29,2.33,7.25,4.35,11.07,6.08
	c14.24,6.46,23.49,10.04,39.97,13.81c67.74,15.49,145.85,10.73,216.53,11.21c42.13,0.28,99.22,2.74,141.22,4.72
	c49.91,2.36,83.11,7.27,121.45,11.21c96.73,9.95,108.07,42.44,109.21,51.94C737.65,891.76,732.69,901.29,717.62,911.32z"/>
<path class="st6" d="M1751,751.52c0,0.07-0.01,0.16-0.02,0.23c-0.07,0.55-0.61,1.18-1.57,1.28c-34.34,3.88-69.03,6.32-103.85,7.77
	c-85.12,0.12-171.45,0.24-253.84,0.36c-251.2,0.35-465.64,0.7-496.55,1.26c-77.26,1.39-190.01-0.25-267.31,0.44
	c-76.74,0.7-182.59-1.17-259.33-1.04c-64.07,0.1-129.48,0.7-191.53,10.15c-30.36,4.62-60.25,11.45-85.93,21.37
	c-1.65,0.64-3.26,1.32-4.73,2.07v-35.92c86.14-3.88,272.27-3.63,331.18-3.76c77.31-0.18,160.09,2.66,237.4,1.79
	c77.29-0.86,164.68-0.24,241.92-1.79c16.82-0.34,88.51-0.78,191.3-1.29C1259.44,753.58,1517.09,752.55,1751,751.52z"/>
<g>
	<path class="st8" d="M985.93,546.55c-2.02-8.09-3.31-19.85-5.87-27.78c-2.33-7.21-5.32-11.62-9.75-17.91
		c-0.25-0.35-0.51-0.69-0.79-1.02c-1.72-2.06-3.9-3.74-5.26-6.05c-1.75-2.97-1.41-5.78-1.32-9.12c0.15-5.29-0.22-10.8-4.93-14.12
		c-10.8-7.61-21.38,6.52-26.62,14.19c-16.93,24.8-26.81,56.82-16.28,86.17c2.64,7.35,6.94,13.37,10.77,20.08
		c1.72,3.01,2.32,6.05,2.57,9.12c0.41,4.94-0.09,9.95,1.71,15.01c2.73,7.68,8.65,13.82,15.86,17.17c-0.55,1.36-0.39,2.98,1.06,4.27
		c9.22,8.24,22.68,5.43,30.51-3.33c9.29-10.39,12.5-26.06,13.54-39.51C992.34,577.86,989.75,561.89,985.93,546.55z"/>
	<path class="st1" d="M943.39,620.66c-6.02-5.82-9-14.73-14.94-20.57c0.41,4.94-0.09,9.95,1.71,15.01
		c2.73,7.68,8.65,13.82,15.86,17.17c-0.55,1.36-0.39,2.98,1.06,4.27c5.25,4.69,11.88,5.8,18.06,4.27
		c-0.03-4.22-0.32-8.44-0.87-12.62C956.7,628.69,948.79,625.89,943.39,620.66z"/>
	<path class="st1" d="M986.6,549.31c-0.02,0.16-0.04,0.32-0.06,0.49c-0.36,3.15-0.69,6.31-0.71,9.49c-0.02,3.05,0.19,6.09,0.29,9.14
		c0.15,4.65-0.33,9.14-1.15,13.64c0.08,6.22-0.42,11.7-0.4,18.68c0.02,5.99-0.55,12.3-3.58,17.6c-2.49,4.35-6.52,7.42-11.3,8.86
		c-1.24,0.37-2.51,0.64-3.8,0.81c0.53,4.08,0.83,8.2,0.87,12.32c4.06-1.33,7.84-3.8,10.82-7.12c9.29-10.39,12.5-26.06,13.54-39.51
		C992.27,578.81,990.05,563.8,986.6,549.31z"/>
</g>
<path class="st10" d="M971.88,547.86c-6.8,10.45-14.49,20.28-23.01,29.39c-0.25,0.27-0.57,0.31-0.83,0.21
	c-1.89,13.77-2.45,27.46-2.37,41.19c0.07,12.08,0.62,24.19,1.19,36.4h-4.77c-0.42-10.02,0.11-18.12,0.35-28.24
	c0.06-2.59,0.14-5.18,0.25-7.76c0.37-9.01,1.02-18,1.94-26.97c-0.08-0.06-0.15-0.13-0.22-0.23c-4.48-7.16-7.32-15.17-8.37-23.54
	c-0.13-1.05,1.51-1.14,1.64-0.1c0.95,7.52,3.41,14.74,7.23,21.28c0.6-5.53,1.31-11.04,2.12-16.54c1.34-9.09,2.97-18.14,4.88-27.13
	c1.77-8.31,3.47-16.94,8-24.26c0.55-0.89,2.02-0.15,1.46,0.75c-5.15,8.32-6.78,18.43-8.7,27.88c-1.7,8.37-3.14,16.79-4.35,25.24
	c8.16-8.8,15.55-18.26,22.1-28.31C970.99,546.23,972.46,546.97,971.88,547.86z"/>
<polyline class="st5" points="1275.29,583 1282.69,570.6 1290.08,583 "/>
<polyline class="st5" points="1302.65,583 1310.04,570.6 1317.43,583 "/>
<polygon class="st11" points="1310.04,570.6 1299.51,570.6 1299.51,582.14 1303.16,582.14 "/>
<polygon class="st11" points="1282.69,570.6 1272.15,570.6 1272.15,582.14 1275.81,582.14 "/>
<rect x="1160.09" y="605.67" class="st2" width="13.68" height="13.68"/>
<rect x="1194.52" y="605.67" class="st2" width="13.68" height="13.68"/>
<g>
	<g>
		<g>
			<rect x="1272.15" y="607.68" class="st3" width="13.68" height="13.68"/>
		</g>
		<g>
			<rect x="1306.58" y="607.68" class="st3" width="13.68" height="13.68"/>
		</g>
		<g>
			<rect x="1272.15" y="588.4" class="st3" width="13.68" height="13.68"/>
		</g>
		<g>
			<rect x="1306.58" y="588.4" class="st3" width="13.68" height="13.68"/>
		</g>
	</g>
</g>
<path class="st6" d="M833.3,613.47v41.5H531.37V655H87.13c-0.83-3.92-0.76-7.84,0.6-11.53c0.84-2.27,2.02-3.86,3.43-4.91
	c4.3-3.21,10.87-1.39,17.22,1.9c0.65,0.33,1.29,0.68,1.92,1.04c0.27-0.2,0.52-0.42,0.79-0.63c5.14-4.08,10.29-8.15,15.57-12.1
	c0.77-0.59,1.55-1.17,2.34-1.76c1.83-1.36,3.69-2.71,5.58-4.05c24.83-17.64,53.7-32.73,87.15-33.08c14.12-0.16,28.62,2.2,41.15,7.83
	c1.07,0.48,2.13,0.99,3.18,1.52c6.34,3.22,11.98,7.28,16.66,12.1c2.81,2.9,5.72,7.41,10.68,7.23c4.46-0.14,9.51-3.94,13.22-5.9
	c13.45-7.12,29.19-15.89,45.83-14.9c0.38,0.02,0.77,0.05,1.15,0.08c4.1,0.36,8.07,1.35,11.72,2.97c4.03,1.77,7.5,4.72,12.13,5.3
	c5.92,0.74,11.87-2.09,17.07-4.12c4.78-1.88,9.55-3.82,14.31-5.75c35.58-14.49,73.33-30.06,113.95-27.26c0.09,0,0.18,0.01,0.27,0.02
	c-0.01,0.15-0.01,0.29-0.01,0.44c2.11-0.03,4.21,0.01,6.29,0.12c0,0,0.01,0,0.01,0c25.06,1.25,48.74,11.51,71.11,20.47
	c14.06,5.63,28.69,11.48,44.12,13.8c8.05,1.21,16.21,1.09,23.98-1.22c7.19-2.13,13.69-5.58,20.54-8.35
	c26.22-10.57,56.81-9.84,84.25-3.25C794.45,596.08,814.21,604.33,833.3,613.47z"/>
<g>
	<g>
		<path class="st8" d="M1244.63,647.86c1.88,0.68,3.75,1.64,5.41,2.82c-0.24-0.23-0.47-0.48-0.72-0.77
			c-1.26-1.46-2.41-2.91-4.2-3.75c-3.28-1.55-7.27-1.02-10.41,0.73C1238,646.24,1241.66,646.79,1244.63,647.86z"/>
		<path class="st8" d="M1254.54,656.78c-0.58-1.27-1.14-2.46-2.09-3.49c-1.96-2.12-4.61-3.68-7.27-4.78
			c-3.41-1.41-7.85-2.06-11.57-0.92c-0.1,0.07-0.2,0.13-0.3,0.21c-3.18,2.35-5.22,5.77-6.87,9.3c-0.49,0.1-0.72,0.54-0.7,0.99
			c0.92,0,1.83-0.01,2.75-0.06c2.3-0.11,4.45-0.58,6.66-1.22c1.78-0.52,3.59-1.06,5.45-1.21c1.84-0.15,3.72,0.03,5.54,0.27
			c2.91,0.39,5.78,1.06,8.67,1.54C1254.71,657.18,1254.62,656.96,1254.54,656.78z"/>
		<path class="st8" d="M1257.58,653.77c1.12,0.65,2.47,0.97,3.65,0.27c0.97-0.57,1.51-1.64,1.94-2.63c0.92-2.09,1.82-4.14,2.98-6.12
			c0.6-1.03,1.26-2.06,1.97-3.06c-4.23,2.95-8.44,5.96-12.74,8.82c-0.19,0.13-0.38,0.24-0.56,0.34
			C1255.63,652.32,1256.54,653.16,1257.58,653.77z"/>
		<path class="st8" d="M1286.01,636.19c-1.56-0.95-3.4-1.11-5.17-0.84c-4.3,0.67-7.89,3.52-11.36,5.93
			c-0.09,0.06-0.19,0.13-0.28,0.2c-0.03,0.04-0.07,0.08-0.1,0.13c-1.76,2.3-3.14,4.8-4.45,7.38c-0.87,1.73-1.28,4-2.92,5.21
			c-1.73,1.28-3.84,0.43-5.34-0.77c-0.7-0.55-1.32-1.18-1.9-1.86c-1.25,0.61-2.25,0.58-3.2,0.07c0.27,0.22,0.53,0.45,0.78,0.69
			c0.93,0.88,1.67,1.84,2.23,2.98c0.31,0.63,0.59,1.28,0.89,1.92c0.04,0.08,0.08,0.17,0.11,0.27c0.66,0.1,1.31,0.2,1.97,0.28
			c2.44-0.1,4.88-0.18,7.31-0.27c0.72-2.27,1.64-4.48,2.78-6.58c2.44-4.49,5.88-8.52,10.29-11.17c2.8-1.68,5.88-2.69,9.05-3.05
			C1286.49,636.52,1286.27,636.35,1286.01,636.19z"/>
		<path class="st8" d="M1281.4,642.18c1.48-2.33,3.64-3.73,6.05-4.75c-0.11-0.13-0.23-0.26-0.35-0.38c-1.21,0.12-2.41,0.32-3.6,0.65
			c-9.35,2.54-15.59,10.91-18.47,19.8c2.49-0.08,4.98-0.16,7.47-0.23c1.01-0.03,2.02-0.05,3.02-0.07c1.18-0.09,2.35-0.18,3.53-0.25
			C1278.03,651.91,1278.58,646.61,1281.4,642.18z"/>
		<path class="st8" d="M1298.46,650.72c4.14-3.6,9.78-5.18,15.09-3.43c5.14,1.69,9.17,5.7,12.6,9.73c2.34,0.04,4.69,0.09,7.03,0.14
			c-1.58-1.74-3.12-3.54-4.84-5.15c-3.32-3.13-7.9-4.96-12.17-6.4c-4.31-1.46-9.08-2.62-13.6-1.56c-3.87,0.9-7.58,2.8-10.7,5.25
			c-2.49,1.96-4.92,4.56-5.74,7.7c2.57-0.04,5.15-0.07,7.72-0.1C1294.9,654.53,1296.5,652.42,1298.46,650.72z"/>
		<path class="st8" d="M1309.59,651.49c4.28-0.31,8.32,2.26,10.94,5.44c0,0,0,0,0,0c1.69,0.02,3.39,0.04,5.08,0.07
			c-1.81-2.12-3.75-4.14-5.95-5.86c-4.33-3.4-9.68-5.26-15.1-3.48c-4.49,1.47-8.28,4.94-10.26,9.22c2.65-0.02,5.31-0.04,7.96-0.04
			C1302.74,653.6,1306.61,651.71,1309.59,651.49z"/>
		<path class="st8" d="M1309.83,651.88c-2.85,0.12-6.63,1.88-7.16,4.96c5.29-0.01,10.58,0.01,15.86,0.07
			c0.49,0.01,0.97,0.01,1.46,0.02C1317.49,654,1313.8,651.71,1309.83,651.88z"/>
		<path class="st8" d="M1345.42,655.6c-9.71-4.94-19.8-9.11-29.91-13.17c-4.21-1.7-8.24-2.84-12.77-1.78
			c-4.1,0.96-9.96,4.21-13.13-0.13c-0.67-0.92-1.22-1.91-1.9-2.78c-2.36,0.99-4.5,2.34-5.95,4.61c-2.79,4.36-3.33,9.6-2.31,14.56
			c1.43-0.09,2.86-0.16,4.29-0.19c0.17,0,0.24,0.17,0.19,0.29c0.59-0.01,1.18-0.02,1.77-0.02c0.87-3.52,3.72-6.41,6.56-8.51
			c3.14-2.32,6.83-4.13,10.67-4.93c4.47-0.93,9.18,0.26,13.41,1.69c4.41,1.5,9.04,3.38,12.45,6.64c1.54,1.48,2.95,3.09,4.38,4.68
			c0.18,0.2,0.36,0.4,0.54,0.61c3.75,0.09,7.49,0.19,11.24,0.31C1345.95,657.52,1346.29,656.05,1345.42,655.6z"/>
	</g>
</g>
<g>
	<path class="st1" d="M1715.09,549.56c2.38-3.12,4.17-6.18,4.52-10.16c0.62-7.03-3.11-14.37-9.58-17.45
		c-3.05-1.45-6.33-2.29-9.48-3.48c-0.11-0.04-0.23-0.09-0.34-0.13c-2.95-1.15-6.34-2.85-6.97-6.27c-0.77-4.2,2.87-7.69,3.73-11.6
		c0.6-2.76-0.15-5.43-2-7.54c-3.92-4.49-10.34-5.77-14.53-9.94c-2.46-2.46-2.55-5.38-3.22-8.6c-0.6-2.88-2.51-5.67-5.83-4.21
		c-1.94,0.85-3.66,2.65-5.21,4.04c-1.68,1.51-3.29,3.1-4.83,4.75c-3.07,3.29-5.85,6.86-8.31,10.62
		c-5.03,7.69-8.72,16.28-10.76,25.23c-2.42,10.65-2.54,21.68-1.68,32.52c0.22,2.71,0.5,5.42,0.81,8.12
		c0.31,2.62,0.81,5.48-0.25,7.99c-1.35,3.21-4.63,4.3-7.85,4.68c-6.41,0.76-14.22-0.65-19.51,3.93c-6.87,5.94-4.57,16.05-0.75,22.94
		c0.62,1.11,1.26,2.22,1.92,3.31c-0.44,3.47-0.48,6.99,0.01,10.51c1.14,8.22,5.26,16.2,12.05,21.16c5.74,4.18,12.69,5.42,19.62,5.18
		c2.28-0.07,4.55-0.31,6.78-0.65c9.01-1.4,18.04-4.13,26.53-7.42c7.88-3.05,15.56-7,21.84-12.71c6.57-5.97,11.03-13.75,12.77-22.46
		c1.87-9.36,0.91-19.13-1.58-28.28c-0.69-2.53-1.7-5.18-1.26-7.84C1712.12,553.41,1713.65,551.43,1715.09,549.56z"/>
	<path class="st10" d="M1683.08,654.86c-1.14-4.46-2.25-8.88-3.31-13.29c-4.29-17.78-7.8-35.38-9.1-54.1
		c0.28,0.04,0.58-0.07,0.77-0.38c6.48-10.65,12-21.85,16.53-33.47c0.38-0.98-1.2-1.41-1.58-0.44c-4.35,11.18-9.66,21.95-15.85,32.23
		c-0.55-8.52-0.85-17.06-0.9-25.6c-0.05-9.64-0.52-19.87,2.83-29.07c0.36-0.99-1.22-1.42-1.58-0.44c-2.94,8.1-2.86,16.89-2.89,25.39
		c-0.04,9.19,0.22,18.38,0.76,27.56c0.33,5.55,0.76,11.09,1.3,16.62c-5.07-5.62-8.96-12.18-11.42-19.35
		c-0.34-0.99-1.93-0.57-1.58,0.44c2.74,7.98,7.16,15.24,13,21.33c0.08,0.09,0.17,0.14,0.26,0.18c0.99,9.62,2.3,19.22,3.93,28.76
		c0.32,1.9,0.66,3.8,1.01,5.69c0.33,1.81,0.68,3.63,1.04,5.44c0.22,1.1,0.44,2.2,0.67,3.3c0.63,3.07,1.29,6.13,1.99,9.18H1683.08z"
		/>
</g>
<g>
	<path class="st12" d="M1789.12,45.88H127.24c-46.45,0-84.24,37.81-84.24,84.28v815.3c0,46.47,37.79,84.28,84.24,84.28h1661.88
		c46.45,0,84.24-37.81,84.24-84.28v-815.3C1873.36,83.69,1835.57,45.88,1789.12,45.88z M1769.22,986.51H85.59V86.33h1683.63V986.51z
		"/>
	<path class="st13" d="M1789.12,50.9H127.24C83.48,50.9,48,86.38,48,130.16v815.3c0,43.78,35.47,79.27,79.23,79.27h1661.88
		c43.76,0,79.23-35.49,79.23-79.27v-815.3C1868.35,86.38,1832.88,50.9,1789.12,50.9z M1715.81,961.74H127.24
		c-8.98,0-16.27-7.29-16.27-16.27v-815.3c0-8.99,7.28-16.27,16.27-16.27h1588.57c8.98,0,16.27,7.29,16.27,16.27v815.3
		C1732.08,954.45,1724.79,961.74,1715.81,961.74z"/>
	<ellipse class="st14" cx="1797.01" cy="562.78" rx="38.19" ry="38.2"/>
	<path class="st15" d="M1762.58,565.43c0-21.1,17.1-38.2,38.19-38.2c7.36,0,14.22,2.09,20.05,5.69c-6.53-5.21-14.8-8.34-23.8-8.34
		c-21.09,0-38.19,17.1-38.19,38.2c0,13.74,7.25,25.78,18.13,32.51C1768.2,588.29,1762.58,577.52,1762.58,565.43z"/>
</g>
<path class="st8" d="M1620.51,651.49c-29.56-35.2-77.21-53.57-122.85-47.96c-5,0.61-9.94,1.46-14.84,2.64
	c-2.45,0.59-5.37,1.96-7.88,2.19c-4.8,0.4-4.95-2.75-6.53-6.59c-3.17-7.78-10.64-10.4-18.63-9.58c-2.18,0.21-4.34,0.63-6.41,1.24
	c-1.66,0.48-7.04,3.17-8.51,2.59c-1.05-0.42-2.72-4.18-3.56-5.16c-1.72-2.04-3.76-3.78-5.99-5.24c-10.02-6.57-22.61-6.61-33.75-3.09
	c-24.74,7.84-45.98,27.21-60.11,48.68c-23.66-15.98-55.74-9.84-70.92,14.59c-3.05,2.78-6.11,5.58-9.15,8.37
	c-0.4,0.37-0.71,0.8-0.9,1.25h370.97C1621.78,654.18,1621.52,652.72,1620.51,651.49z"/>
<g>
	<path class="st6" d="M1459.63,538.21c2.38-3.12,4.17-6.18,4.52-10.16c0.62-7.03-3.11-14.37-9.58-17.45
		c-3.05-1.45-6.33-2.29-9.48-3.48c-0.11-0.04-0.23-0.09-0.34-0.13c-2.95-1.15-6.34-2.85-6.97-6.27c-0.77-4.2,2.87-7.69,3.73-11.6
		c0.6-2.76-0.15-5.43-2-7.54c-3.92-4.49-10.34-5.77-14.53-9.94c-2.46-2.46-2.55-5.38-3.22-8.6c-0.6-2.88-2.51-5.67-5.83-4.21
		c-1.94,0.85-3.66,2.65-5.21,4.04c-1.68,1.51-3.29,3.1-4.83,4.75c-3.07,3.29-5.85,6.86-8.31,10.62
		c-5.03,7.69-8.72,16.28-10.76,25.23c-2.42,10.65-2.54,21.68-1.68,32.52c0.22,2.71,0.5,5.42,0.81,8.12
		c0.31,2.62,0.81,5.48-0.25,7.99c-1.35,3.21-4.63,4.3-7.85,4.68c-6.41,0.76-14.22-0.65-19.51,3.93c-6.87,5.94-4.57,16.05-0.75,22.94
		c0.62,1.11,1.26,2.22,1.92,3.31c-0.44,3.47-0.48,6.99,0.01,10.51c1.14,8.22,5.26,16.2,12.05,21.16c5.74,4.18,12.69,5.42,19.62,5.18
		c2.28-0.07,4.55-0.31,6.78-0.65c9.01-1.4,18.04-4.13,26.53-7.42c7.88-3.05,15.56-7,21.84-12.71c6.57-5.97,11.03-13.75,12.77-22.46
		c1.87-9.36,0.91-19.13-1.58-28.28c-0.69-2.53-1.7-5.18-1.26-7.84C1456.66,542.06,1458.19,540.09,1459.63,538.21z"/>
	<path class="st10" d="M1415.98,575.75c6.48-10.65,12-21.85,16.53-33.47c0.38-0.98-1.2-1.41-1.58-0.44
		c-4.35,11.18-9.66,21.95-15.85,32.23c-0.55-8.52-0.85-17.06-0.9-25.6c-0.05-9.64-0.52-19.87,2.82-29.07
		c0.36-0.99-1.22-1.42-1.58-0.44c-2.94,8.1-2.85,16.89-2.89,25.39c-0.04,9.19,0.22,18.38,0.76,27.56c0.33,5.55,0.76,11.09,1.3,16.63
		c-5.07-5.62-8.96-12.19-11.42-19.36c-0.34-0.99-1.93-0.57-1.58,0.44c2.74,7.98,7.16,15.24,13,21.33c0.08,0.09,0.17,0.14,0.26,0.18
		c1.19,11.54,2.84,23.04,4.94,34.45c1.87,10.18,3.01,18.37,5.59,28.4c0.26,1.02,5.29,1.41,5.02,0.39
		c-6.7-25.99-13.35-51.48-15.2-78.24C1415.49,576.17,1415.79,576.07,1415.98,575.75z"/>
</g>
<g>
	<path class="st6" d="M1508.03,581.01c0.29-5.03-0.09-10.1-1.15-15.02c-0.03-0.16-0.07-0.31-0.11-0.47
		c-1.13-4.96-3.06-9.51-5.39-14.03c-1.35-2.61-2.19-5.35-0.9-8.16c0.98-2.13,2.74-3.82,4.42-5.42c3.48-3.33,7.21-6.66,7.67-11.76
		c0.26-2.98-0.5-5.97-1.33-8.8c-0.62-2.11-1.36-4.64-3.85-5.12c-2.51-0.48-5.18,1.47-7.14,2.78c-2.34,1.56-4.52,3.36-6.49,5.36
		c-4.02,4.08-7.17,8.97-9.22,14.31c-2.11,5.5-2.11,12.72-6.73,16.91c-2.19,1.99-4.86,3.27-6.89,5.48c-1.69,1.84-3,3.98-3.96,6.27
		c-1.91,4.54-2.54,9.51-2.65,14.41c-2.92,4.53-5.15,9.52-6.55,14.71c-1.36,5.06-1.93,10.33-1.59,15.59
		c0.34,5.14,1.33,10.72,4.64,14.83c3.22,4.01,8.31,5.41,13.29,4.74c10.34-1.4,18.8-9.44,24.38-17.76
		C1504.19,601.35,1507.44,591.24,1508.03,581.01z"/>
	<path class="st8" d="M1508.03,581.01c0.29-5.03-0.09-10.1-1.15-15.02c-0.03-0.16-0.07-0.31-0.11-0.47
		c-5.61,5.9-7.19,14.33-10.22,21.69c-2.7,6.56-8.7,14.74-16.77,13.82c-5.12-0.58-8.69-4.75-13.05-7.02
		c-2.67-1.39-6.01-2.31-8.99-1.53c-1.36,5.06-1.93,10.33-1.59,15.59c0.34,5.14,1.33,10.72,4.64,14.83
		c3.22,4.01,8.31,5.41,13.29,4.74c10.34-1.4,18.8-9.44,24.38-17.76C1504.19,601.35,1507.44,591.24,1508.03,581.01z"/>
	<path class="st9" d="M1482.88,614.56c3.14-0.93,6.14-2.22,8.98-3.86c0.91-0.53,0.09-1.95-0.82-1.42c-2.29,1.32-4.68,2.4-7.16,3.25
		c3.69-4.58,6.84-9.56,9.35-14.9c0.45-0.95-0.97-1.78-1.42-0.83c-2.34,4.97-5.23,9.65-8.61,13.95c-0.19-0.1-0.41-0.13-0.61-0.07
		c1.65-3.05,2.84-6.3,3.56-9.71c0.22-1.03-1.35-1.45-1.59-0.42c-2.54,11.06-5.93,15.17-6.35,15.64c0.14-3.42,0.93-10.2,1.18-13.61
		c0.24-0.23,0.35-0.59,0.14-0.96c-0.02-0.04-0.04-0.08-0.06-0.12c0.33-4.4,0.76-8.79,1.28-13.17c0.14-1.2,0.3-2.4,0.46-3.6
		c0.27,0.38,0.81,0.55,1.2,0.11c5.5-6.14,10.24-12.91,14.11-20.19c0.49-0.93-0.92-1.76-1.42-0.83c-3.78,7.11-8.37,13.73-13.74,19.74
		c0.59-4.37,1.27-8.72,2.04-13.06c0.18-1.03-1.4-1.46-1.59-0.42c-1.67,9.43-2.91,18.93-3.73,28.47c-2.13-5.21-2.83-10.93-1.94-16.53
		c0.16-1.03-1.42-1.46-1.59-0.42c-1.1,6.96,0.02,14.02,3.26,20.27c-0.31,4.04-0.53,8.09-0.68,12.14c-5.1-3.24-9.1-7.87-11.6-13.4
		c-0.43-0.96-1.85-0.13-1.42,0.82c2.73,6.04,7.26,11.08,12.96,14.46c-0.17,5.54-0.21,11.08-0.08,16.62
		c0.13,5.98,0.44,11.95,0.9,17.92c0.08,1.04,1.72,1.04,1.64-0.01c-0.82-10.52-1.12-21.08-0.89-31.62
		C1480.5,617.83,1481.95,616.37,1482.88,614.56z"/>
</g>
<path class="st1" d="M469.5,646.57c-6.05-10.23-12.87-19.99-20.71-28.76c-2.04-2.3-4.16-4.52-6.35-6.67
	c-7.88-7.77-16.72-14.55-26.69-19.95c-12.18-6.59-25.8-11.05-39.67-12.28c-4.53-0.4-9.1-0.45-13.63-0.12
	c-4.73,0.34-9.25,1.17-13.68,2.34c-4.12,1.1-8.19,2.46-12.28,4c-4.89,1.83-10.86,4.33-15.68,1.2c-3.46-2.24-5.43-7.14-8.35-10.12
	c-10.11-10.37-26.44-14.01-40.2-9.79c-8.13,2.5-13.35,7.84-19.61,13.21c-7.83,6.72-14.88,5.39-21.7-1.72
	c-10.68-11.15-17.17-24.68-33.35-28.8c-16.19-4.14-33.72,1.54-47.76,9.58c-14.72,8.44-27.6,20.18-38.31,33.81V655h197.29
	c0.87,0.12,1.74,0.25,2.6,0.39c13.38-0.18,26.76-0.29,40.16-0.32c0.45,0.11,4.29-0.03,5.57-0.03c0.18,0,0.34-0.01,0.51-0.04h116.61
	C472.72,652.15,471.14,649.35,469.5,646.57z"/>
<g>
	<path class="st6" d="M404.14,538.21c2.38-3.12,4.17-6.18,4.52-10.16c0.62-7.03-3.11-14.37-9.58-17.45
		c-3.05-1.45-6.33-2.29-9.48-3.48c-0.11-0.04-0.23-0.09-0.34-0.13c-2.95-1.15-6.34-2.85-6.97-6.27c-0.77-4.2,2.87-7.69,3.73-11.6
		c0.6-2.76-0.15-5.43-2-7.54c-3.92-4.49-10.34-5.77-14.53-9.94c-2.46-2.46-2.55-5.38-3.22-8.6c-0.6-2.88-2.51-5.67-5.83-4.21
		c-1.94,0.85-3.66,2.65-5.21,4.04c-1.68,1.51-3.29,3.1-4.83,4.75c-3.07,3.29-5.85,6.86-8.31,10.62
		c-5.03,7.69-8.72,16.28-10.76,25.23c-2.42,10.65-2.54,21.68-1.68,32.52c0.22,2.71,0.5,5.42,0.81,8.12
		c0.31,2.62,0.81,5.48-0.25,7.99c-1.35,3.21-4.63,4.3-7.85,4.68c-6.41,0.76-14.22-0.65-19.51,3.93c-6.87,5.94-4.57,16.05-0.75,22.94
		c0.62,1.11,1.26,2.22,1.92,3.31c-0.44,3.47-0.48,6.99,0.01,10.51c1.14,8.22,5.26,16.2,12.05,21.16c5.74,4.18,12.69,5.42,19.62,5.18
		c2.28-0.07,4.55-0.31,6.78-0.65c9.01-1.4,18.04-4.13,26.53-7.42c7.88-3.05,15.56-7,21.84-12.71c6.57-5.97,11.03-13.75,12.77-22.46
		c1.87-9.36,0.91-19.13-1.58-28.28c-0.69-2.53-1.7-5.18-1.26-7.84C401.18,542.06,402.71,540.09,404.14,538.21z"/>
	<path class="st10" d="M360.5,575.75c6.48-10.65,12-21.85,16.53-33.47c0.38-0.98-1.2-1.41-1.58-0.44
		c-4.35,11.18-9.66,21.95-15.85,32.23c-0.55-8.52-0.85-17.06-0.9-25.6c-0.05-9.64-0.52-19.87,2.82-29.07
		c0.36-0.99-1.22-1.42-1.58-0.44c-2.94,8.1-2.85,16.89-2.89,25.39c-0.04,9.19,0.22,18.38,0.76,27.56c0.33,5.55,0.76,11.09,1.3,16.63
		c-5.07-5.62-8.96-12.19-11.42-19.36c-0.34-0.99-1.93-0.57-1.58,0.44c2.74,7.98,7.16,15.24,13,21.33c0.08,0.09,0.17,0.14,0.26,0.18
		c1.19,11.54,2.84,23.04,4.94,34.45c1.87,10.18,3.01,18.37,5.59,28.4c0.26,1.02,5.29,1.41,5.02,0.39
		c-6.7-25.99-13.35-51.48-15.2-78.24C360.01,576.17,360.31,576.07,360.5,575.75z"/>
</g>
<g>
	<path class="st6" d="M452.54,581.01c0.29-5.03-0.09-10.1-1.15-15.02c-0.03-0.16-0.07-0.31-0.11-0.47
		c-1.13-4.96-3.06-9.51-5.39-14.03c-1.35-2.61-2.19-5.35-0.9-8.16c0.98-2.13,2.74-3.82,4.42-5.42c3.48-3.33,7.21-6.66,7.67-11.76
		c0.26-2.98-0.5-5.97-1.33-8.8c-0.62-2.11-1.36-4.64-3.85-5.12c-2.51-0.48-5.18,1.47-7.14,2.78c-2.34,1.56-4.52,3.36-6.49,5.36
		c-4.02,4.08-7.17,8.97-9.22,14.31c-2.11,5.5-2.11,12.72-6.73,16.91c-2.19,1.99-4.86,3.27-6.89,5.48c-1.69,1.84-3,3.98-3.96,6.27
		c-1.91,4.54-2.54,9.51-2.65,14.41c-2.92,4.53-5.15,9.52-6.55,14.71c-1.36,5.06-1.93,10.33-1.59,15.59
		c0.34,5.14,1.33,10.72,4.64,14.83c3.22,4.01,8.31,5.41,13.29,4.74c10.34-1.4,18.8-9.44,24.38-17.76
		C448.7,601.35,451.95,591.24,452.54,581.01z"/>
	<path class="st8" d="M452.54,581.01c0.29-5.03-0.09-10.1-1.15-15.02c-0.03-0.16-0.07-0.31-0.11-0.47
		c-5.61,5.9-7.19,14.33-10.22,21.69c-2.7,6.56-8.7,14.74-16.77,13.82c-5.12-0.58-8.69-4.75-13.05-7.02c-2.67-1.39-6-2.31-8.99-1.53
		c-1.36,5.06-1.93,10.33-1.59,15.59c0.34,5.14,1.33,10.72,4.64,14.83c3.22,4.01,8.31,5.41,13.29,4.74
		c10.34-1.4,18.8-9.44,24.38-17.76C448.7,601.35,451.95,591.24,452.54,581.01z"/>
	<path class="st9" d="M427.4,614.56c3.14-0.93,6.14-2.22,8.98-3.86c0.91-0.53,0.09-1.95-0.82-1.42c-2.29,1.32-4.68,2.4-7.16,3.25
		c3.69-4.58,6.84-9.56,9.35-14.9c0.45-0.95-0.97-1.78-1.42-0.83c-2.34,4.97-5.23,9.65-8.61,13.95c-0.19-0.1-0.41-0.13-0.61-0.07
		c1.65-3.05,2.84-6.3,3.56-9.71c0.22-1.03-1.35-1.45-1.59-0.42c-2.54,11.06-5.93,15.17-6.35,15.64c0.14-3.42,0.93-10.2,1.18-13.61
		c0.24-0.23,0.35-0.59,0.14-0.96c-0.02-0.04-0.04-0.08-0.06-0.12c0.33-4.4,0.76-8.79,1.28-13.17c0.14-1.2,0.3-2.4,0.46-3.6
		c0.27,0.38,0.81,0.55,1.2,0.11c5.5-6.14,10.24-12.91,14.11-20.19c0.49-0.93-0.92-1.76-1.42-0.83c-3.78,7.11-8.37,13.73-13.74,19.74
		c0.59-4.37,1.27-8.72,2.04-13.06c0.18-1.03-1.4-1.46-1.59-0.42c-1.67,9.43-2.91,18.93-3.73,28.47c-2.13-5.21-2.83-10.93-1.94-16.53
		c0.16-1.03-1.42-1.46-1.59-0.42c-1.1,6.96,0.02,14.02,3.26,20.27c-0.31,4.04-0.53,8.09-0.68,12.14c-5.1-3.24-9.1-7.87-11.6-13.4
		c-0.43-0.96-1.85-0.13-1.42,0.82c2.73,6.04,7.26,11.08,12.96,14.46c-0.17,5.54-0.21,11.08-0.08,16.62
		c0.13,5.98,0.44,11.95,0.9,17.92c0.08,1.04,1.72,1.04,1.64-0.01c-0.82-10.52-1.12-21.08-0.89-31.62
		C425.02,617.83,426.46,616.37,427.4,614.56z"/>
</g>
<g>
	<path class="st6" d="M385.41,625.94c12.65,1.36,24.95,0.13,37.13-3.51c10.91-3.25,20.32-9.55,30.4-14.61
		c9.65-4.84,20.33-8.34,31.1-9.46c-33.6-5.09-59.95,23.94-92.37,26.45c-5.47,0.42-10.93,0.13-16.39-0.36
		C378.65,625.04,382.03,625.58,385.41,625.94z"/>
	<path class="st6" d="M231.81,660.35c-3.16,0.73-6.39,1.16-9.68,1.15c-7.21-0.02-16.17-1.64-23,1.61
		c6.92,2.45,15.31,2.62,23.59,2.13C225.33,663.04,228.74,661.55,231.81,660.35z"/>
	<path class="st6" d="M288.64,656.57c-12.67-3.67-26.33-3.2-39.15-0.54c-5.76,1.2-11.49,2.72-16.97,4.88
		c-2.7,1.06-5.87,2.36-8.43,4.24c6.77-0.46,13.42-1.3,19.07-1.63c15.19-0.9,38.74-0.61,59.12-0.75
		C298.09,660.05,293.5,657.97,288.64,656.57z"/>
	<path class="st6" d="M329.68,660.45c-1.64-1.37-3.12-2.91-4.78-4.27c-0.53-0.43-0.83-0.62-0.53-1.29c0.25-0.56,1.06-1.1,1.46-1.55
		c0.43-0.49,0.81-0.97,1.3-1.4c1.28-1.13,2.84-2.02,4.3-2.9c3.71-2.23,7.57-4.12,11.74-5.34c9.17-2.69,19.51-3.17,28.87-1.24
		c8.76,1.8,16.93,5.85,24.21,10.95c0.57,0.4,4.52,3.1,7.02,5.49c5.56-0.19,11.36-0.38,17.57-0.6c-1.2-1.16-2.25-2.49-3.32-3.75
		c-1.89-2.23-3.83-4.19-6.16-5.96c-4.78-3.61-9.95-6.7-15.4-9.17c-9.52-4.3-20.14-6.79-30.59-7.24
		c-10.28-0.44-20.13,1.54-28.83,7.15c-7.63,4.92-14.78,11.29-24.5,10.45c-10.02-0.87-20.05-6.62-29.76-1.52
		c5.61,5.84,15.35,5.88,22.7,7.89c5.35,1.46,10.46,3.59,15.25,6.29c2.35-0.08,4.58-0.17,6.65-0.29c1.58-0.09,3.13-0.18,4.66-0.26
		C330.9,661.43,330.28,660.96,329.68,660.45z"/>
	<path class="st6" d="M341.59,660.5c-0.42-1.51,0.29-3.04,1.14-4.26c2.26-3.24,6.05-5.73,9.63-7.29c4.05-1.76,9-1.14,13.19-0.16
		c7.11,1.67,14.79,5.32,20.34,10.7c5.3-0.18,10.63-0.36,16.18-0.55c-1.23-1.1-2.5-2.13-2.72-2.3c-2.39-1.82-4.85-3.57-7.41-5.14
		c-7.52-4.62-15.87-8.04-24.7-9.01c-8.69-0.96-18.03-0.2-26.29,2.73c-3.43,1.22-6.67,2.95-9.77,4.86c-1.36,0.84-2.9,1.71-4.04,2.86
		c-0.32,0.32-2.1,1.94-2.09,2.39c0,0.2,1.46,1.1,1.58,1.2c0.66,0.55,1.25,1.18,1.86,1.78c1.22,1.21,2.54,2.28,3.94,3.28
		c0.11,0.08,0.23,0.15,0.34,0.23c3.17-0.17,6.22-0.33,9.18-0.48C341.82,661.09,341.68,660.81,341.59,660.5z"/>
	<path class="st6" d="M352.36,658.33c0.48-1.51,2.22-2.26,3.64-2.57c4.05-0.91,8.41,0.76,10.12,4.48c6.34-0.26,12.43-0.49,18.55-0.7
		c-1.43-1.28-2.96-2.45-4.54-3.51c-4.11-2.74-8.69-4.87-13.46-6.15c-3.96-1.07-8.85-1.95-12.86-0.64
		c-3.95,1.29-13.94,7.99-10.76,12.06c3.39-0.17,6.65-0.33,9.81-0.48C352.34,660.08,352.07,659.24,352.36,658.33z"/>
	<path class="st6" d="M356.96,656.37c-1.29,0.17-3.16,0.65-3.76,1.96c-0.41,0.89-0.03,1.73,0.59,2.44c3.96-0.18,7.76-0.35,11.48-0.5
		C363.74,657.32,360.36,655.93,356.96,656.37z"/>
	<path class="st6" d="M430.81,651.13c0.88-4.84,3.52-9.2,6.53-13.01c5.49-6.94,12.61-13.6,20.37-17.93
		c7.76-4.33,16.46-6.69,25.2-8.01c10.5-1.58,21.09-1.69,31.68-1.32c-8.69-5.03-17.55-9.78-27.36-11.89
		c-4.13,0.22-8.26,0.79-12.37,1.75c-11.28,2.65-21.38,7.55-31.45,13.12c-4.59,2.54-9.21,5.04-14.07,7.03
		c-5.5,2.26-11.36,3.88-17.2,4.97c-11.37,2.13-22.9,1.7-34.27-0.15c-5.23-0.85-10.52-1.87-15.83-2.53
		c-0.42-0.04-0.84-0.07-1.26-0.11c-4.87-0.39-9.72-0.45-14.56-0.22c-1.85,0.21-3.7,0.52-5.55,0.98
		c-10.84,2.68-18.98,10.65-28.66,15.71c-4.77,2.5-9.63,3.85-15.02,4.12c-5.83,0.29-11.68-0.44-17.51-0.03
		c-10.49,0.73-20.08,5.6-29.46,9.94c-2.23,1.03-4.5,2.05-6.79,3c20.09-5.41,43.22-5.34,60.38,6.19c5.34-0.04,10.45-0.12,15.1-0.26
		c-5.01-2.71-10.37-4.78-15.94-6.07c-7.11-1.65-16.27-2.13-21.44-7.96c-0.15-0.17-0.2-0.48,0.04-0.62
		c10.78-6.02,21.42,1.17,32.58,1.28c10.57,0.1,18.05-8.86,26.89-13.23c8.73-4.32,18.78-5.12,28.37-4.22
		c10.51,0.99,20.96,3.84,30.37,8.64c4.71,2.4,9.18,5.27,13.34,8.52c3.44,2.69,5.7,6.63,8.99,9.43c2.91-0.1,5.92-0.21,9.03-0.33
		C430.47,655.75,430.39,653.47,430.81,651.13z"/>
	<path class="st6" d="M471.32,652.7c1.14-12.46,6.09-24.35,17.19-31.07c10.3-6.24,23.07-7.24,35.05-5.57c-2.5-1.43-5-2.89-7.51-4.35
		c-1.92-0.07-3.84-0.14-5.77-0.17c-17.58-0.33-36.7,0.59-52.36,9.44c-7.54,4.26-14.43,10.71-19.81,17.45
		c-2.9,3.63-5.47,7.77-6.43,12.37c-0.51,2.45-0.45,4.84,0.09,7.13c2.29-0.08,4.62-0.17,7.04-0.26c10.76-0.41,21.51-0.8,32.27-1.16
		C471.13,655.22,471.21,653.96,471.32,652.7z"/>
	<path class="st6" d="M740.28,636.34c-4.65-4-10.55-4.53-16.24-2.58c-5.63,1.93-10.54,5.78-14.52,10.12
		c-2.31,2.52-4.44,5.32-6.11,8.34c2.1-0.01,4.21-0.02,6.31-0.03c4.28-0.01,8.56-0.01,12.84-0.01c0.78-5.13,3.97-10.28,9.94-9.34
		c4.73,0.75,6.99,5.22,4.16,9.2c-0.29,0.41-0.87-0.11-0.58-0.52c2.58-3.63,0.2-7.46-3.99-7.95c-5.32-0.62-8.04,4.04-8.74,8.61
		c7.64,0,15.27,0.01,22.91,0.03C748.27,646.43,744.64,640.08,740.28,636.34z"/>
	<path class="st6" d="M745.93,635.66c-4.22-3.9-9.77-6.75-15.47-7.68c-6.36-1.04-13.37,1.12-19.29,3.31
		c-11.46,4.24-21.82,11.6-29.61,21.01c6.99-0.04,13.98-0.06,20.97-0.08c1.56-2.9,3.53-5.6,5.69-8.06
		c6.13-6.99,15.59-13.87,25.44-12.05c8.23,1.52,16.08,11.73,13.42,20.11c1.13,0,2.25,0,3.38,0.01c0-0.05,0.01-0.11,0.04-0.17
		C753.59,646.04,750.52,639.9,745.93,635.66z"/>
	<path class="st6" d="M694.64,639.17c6.43-4.55,13.63-8.09,21.23-10.23c6.27-1.77,12.48-2.79,18.78-0.73
		c5.58,1.83,12.42,6.11,15.82,11.63c-1.35-3.43-3.64-6.25-6.49-8.51c-4.33-2.51-9.48-3.7-14.38-4.57
		c-7.66-1.35-15.38-1.5-23.09-0.47c-15.81,2.11-31.27,8.57-43.68,18.59c-0.39,0.32-0.82-0.34-0.43-0.65
		c7.59-6.12,16.26-10.84,25.43-14.14c15.85-5.71,33.68-7.28,49.95-2.26c0.56,0.17,1.11,0.36,1.65,0.56
		c-4.69-2.46-10.15-3.86-15.3-4.39c-16.19-1.66-33.35,7.11-49.09,2.37c-4.46,1.87-9.1,3.31-13.77,4.45
		c-10.78,2.63-21.93,3.72-33.02,3.74c-0.5,0-0.54-0.78-0.04-0.78c11.02-0.02,22.1-1.09,32.82-3.7c4.35-1.06,8.67-2.39,12.83-4.08
		c-1.06-0.37-2.11-0.8-3.16-1.3c1.04-2.31,2-4.65,2.92-7.01c-15.94,5.78-32.2,10.5-49,13.26c-0.5,0.08-0.53-0.7-0.04-0.78
		c16.95-2.79,33.35-7.58,49.42-13.44c1.43-3.7,2.73-7.43,3.88-11.22c-22.51,1.71-44.2,11.08-63.01,23.12
		c-0.42,0.27-0.85-0.38-0.43-0.65c19.01-12.17,40.94-21.62,63.68-23.27c1.12-3.76,2.1-7.57,2.94-11.42
		c-1.17-0.06-2.35-0.11-3.52-0.15c-6.97-0.23-13.86-0.28-20.74,1.07c-6.87,1.34-13.72,3.5-20.21,6.12
		c-11.98,4.82-25.01,12.04-31.53,23.65c-0.25,0.44-0.94,0.08-0.7-0.35c3.62-6.45,9.32-11.47,15.44-15.51
		c5.79-3.82,12.1-6.87,18.58-9.33c7.25-2.75,14.89-5.03,22.59-6.05c6.6-0.87,13.37-0.58,20.01-0.23c0.05,0,0.1,0.01,0.15,0.01
		c-0.07-1-0.84-1.73-1.92-1.83c-18.69-1.81-37.69,0.94-55.02,8.19c-16.59,6.94-30.91,18.46-47.78,24.77
		c-8.27,3.09-17.12,4.68-25.92,3.28c-8.04-1.28-15.53-4.66-22.64-8.49c-0.77-0.41-1.54-0.84-2.3-1.27
		c-5.94-0.97-11.98-1.27-17.97-0.67c-13.99,1.4-26.71,8.38-32.16,21.78c-2.35,5.78-3.34,11.95-3.6,18.19
		c69.56-2.36,139.15-3.74,208.75-4.15C684.61,647.31,689.37,642.9,694.64,639.17z"/>
	<path class="st6" d="M863.32,649.81c-2.54-1.28-5.13-2.47-7.74-3.59c-0.19,0.09-0.47,0.06-0.58-0.19
		c-0.01-0.03-0.03-0.05-0.05-0.08c-4.2-1.77-8.47-3.33-12.81-4.68c-9.9-1.39-20.03-1.37-30-1.32c-15.54,0.08-31.1,0.11-46.24,4.07
		c-0.49,0.13-0.73-0.61-0.24-0.74c10.44-2.73,21.18-3.72,31.95-3.98c11.34-0.28,22.78-0.37,34.1,0.25c1.98,0.11,3.96,0.23,5.94,0.41
		c-27.37-7.53-56.86-6.79-83.83,2.57c1.4,3.5,3.13,8.99,0.31,9.63c-0.49,0.11-0.73-0.63-0.24-0.74c1.91-0.43,0.75-4.68-0.86-8.61
		c-0.34,0.12-0.68,0.24-1.02,0.36c0.91,2.84,0.83,5.91-0.74,9.07c37.02,0.13,74.04,0.54,111.06,1.22
		C864.22,653.48,865.08,650.7,863.32,649.81z M814.21,648.11c-7.85-0.01-15.68-0.44-23.53-0.45c-0.5,0-0.54-0.78-0.04-0.78
		c7.85,0.01,15.68,0.44,23.53,0.45C814.68,647.33,814.72,648.11,814.21,648.11z M838.55,648.1c-3.05-0.44-6.1-0.87-9.05-1.81
		c-0.48-0.15-0.31-0.91,0.17-0.76c2.95,0.93,6,1.37,9.05,1.81C839.21,647.41,839.04,648.17,838.55,648.1z"/>
	<path class="st6" d="M200.38,661.78c8.48-2.88,17.58-0.25,26.26-1.27c10.63-1.26,20.27-6.43,29.87-10.79
		c4.73-2.15,9.55-4.15,14.6-5.45c5.17-1.33,10.29-1.59,15.61-1.46c5.93,0.15,12.01,0.51,17.81-1.03c5.51-1.46,10.46-4.7,15.15-7.83
		c4.44-2.95,8.82-6.03,13.66-8.32c1.98-0.94,4.03-1.69,6.12-2.27c-1.25,0.14-2.51,0.29-3.76,0.46c-16.42,2.32-32.2,7.73-47.69,13.48
		c-26.04,9.65-54.53,22.4-82.62,20.22c-4.24,0.53-8.43,1.25-12.52,2.39c1.62,1.15,3.39,2.08,5.28,2.83
		C198.86,662.37,199.61,662.04,200.38,661.78z"/>
</g>
<g>
	<g>
		<path class="st8" d="M562.52,630.22c5.68,2.06,11.33,4.96,16.38,8.54c-0.71-0.7-1.44-1.47-2.17-2.32
			c-3.82-4.41-7.3-8.79-12.71-11.34c-9.94-4.69-21.99-3.07-31.48,2.2C542.46,625.31,553.52,626.96,562.52,630.22z"/>
		<path class="st8" d="M592.5,657.17c-1.75-3.84-3.45-7.43-6.34-10.56c-5.92-6.42-13.95-11.13-21.98-14.45
			c-10.31-4.26-23.75-6.24-34.99-2.78c-0.3,0.21-0.61,0.41-0.9,0.62c-9.61,7.12-15.79,17.44-20.79,28.12
			c-1.49,0.31-2.18,1.64-2.13,2.98c2.77-0.01,5.54-0.03,8.31-0.17c6.94-0.34,13.47-1.76,20.13-3.69c5.4-1.56,10.85-3.2,16.48-3.65
			c5.56-0.45,11.25,0.09,16.76,0.83c8.81,1.18,17.47,3.2,26.23,4.67C593,658.38,592.74,657.7,592.5,657.17z"/>
		<path class="st8" d="M601.7,648.07c3.4,1.97,7.47,2.94,11.06,0.82c2.93-1.74,4.56-4.96,5.88-7.96c2.77-6.32,5.51-12.53,9-18.51
			c1.83-3.13,3.81-6.24,5.96-9.26c-12.81,8.93-25.54,18.01-38.53,26.66c-0.58,0.39-1.14,0.73-1.69,1.04
			C595.8,643.7,598.52,646.23,601.7,648.07z"/>
		<path class="st8" d="M687.68,594.92c-4.72-2.86-10.27-3.37-15.64-2.53c-13.01,2.04-23.85,10.65-34.35,17.92
			c-0.28,0.2-0.56,0.39-0.85,0.59c-0.1,0.13-0.2,0.25-0.3,0.38c-5.33,6.96-9.5,14.53-13.45,22.32c-2.65,5.22-3.88,12.08-8.85,15.76
			c-5.22,3.86-11.61,1.3-16.16-2.32c-2.11-1.67-4-3.58-5.75-5.62c-3.77,1.84-6.8,1.76-9.68,0.2c0.81,0.68,1.59,1.37,2.35,2.08
			c2.81,2.65,5.04,5.55,6.75,9c0.95,1.92,1.8,3.88,2.69,5.82c0.11,0.24,0.23,0.52,0.35,0.81c1.99,0.32,3.97,0.61,5.97,0.84
			c7.37-0.29,14.75-0.56,22.13-0.81c2.18-6.87,4.95-13.56,8.4-19.9c7.37-13.57,17.8-25.76,31.14-33.78
			c8.47-5.09,17.78-8.13,27.38-9.22C689.15,595.92,688.46,595.39,687.68,594.92z"/>
		<path class="st8" d="M673.73,613.03c4.47-7.03,11.03-11.27,18.29-14.38c-0.34-0.39-0.7-0.78-1.07-1.15
			c-3.66,0.35-7.3,0.98-10.88,1.95c-28.3,7.68-47.16,33-55.87,59.88c7.53-0.25,15.07-0.48,22.6-0.68c3.05-0.08,6.1-0.15,9.15-0.22
			c3.56-0.28,7.12-0.54,10.68-0.77C663.54,642.43,665.2,626.43,673.73,613.03z"/>
		<path class="st8" d="M725.33,638.85c12.53-10.89,29.59-15.65,45.64-10.38c15.55,5.1,27.75,17.22,38.11,29.43
			c7.09,0.13,14.18,0.27,21.27,0.43c-4.79-5.27-9.45-10.7-14.64-15.59c-10.04-9.46-23.89-14.99-36.81-19.36
			c-13.03-4.41-27.46-7.92-41.15-4.73c-11.71,2.73-22.94,8.47-32.36,15.88c-7.55,5.93-14.87,13.8-17.37,23.27
			c7.79-0.12,15.57-0.22,23.36-0.29C714.59,650.36,719.4,644,725.33,638.85z"/>
		<path class="st8" d="M759,641.19c12.95-0.95,25.17,6.83,33.08,16.45c0,0,0,0,0,0c5.13,0.07,10.25,0.13,15.38,0.22
			c-5.48-6.4-11.34-12.51-17.98-17.72c-13.09-10.27-29.29-15.91-45.69-10.53c-13.59,4.46-25.05,14.95-31.03,27.88
			c8.03-0.07,16.06-0.11,24.09-0.13C738.31,647.55,749.99,641.85,759,641.19z"/>
		<path class="st8" d="M759.74,642.37c-8.62,0.37-20.06,5.69-21.67,14.99c16-0.04,31.99,0.02,47.98,0.2
			c1.47,0.02,2.94,0.04,4.41,0.06C782.92,648.78,771.73,641.85,759.74,642.37z"/>
		<path class="st8" d="M867.39,653.62c-29.38-14.93-59.91-27.54-90.48-39.83c-12.75-5.13-24.94-8.58-38.63-5.38
			c-12.4,2.9-30.13,12.74-39.73-0.39c-2.04-2.79-3.68-5.77-5.75-8.39c-7.13,3-13.6,7.09-17.99,13.93
			c-8.45,13.18-10.06,29.02-6.98,44.02c4.32-0.27,8.65-0.48,12.98-0.58c0.52-0.01,0.73,0.52,0.57,0.89
			c1.79-0.03,3.57-0.05,5.36-0.07c2.64-10.65,11.26-19.38,19.85-25.73c9.5-7.02,20.66-12.5,32.27-14.92
			c13.51-2.81,27.77,0.78,40.57,5.12c13.35,4.53,27.36,10.22,37.66,20.09c4.67,4.47,8.92,9.35,13.25,14.15
			c0.53,0.59,1.08,1.21,1.63,1.84c11.34,0.27,22.67,0.58,34,0.94C869,659.41,870.03,654.96,867.39,653.62z"/>
	</g>
</g>
<path class="st16" d="M1190.5,887.46c-0.92-1.09-2.28-2.23-2.67-2.81c-0.58-0.75-0.42-1.09,0-1.73c0-0.03,4.76-6.71,5.23-8.99
	c0.25-0.83,0-1.42-1.17-1.42h-3.9c-1,0-1.45,0.53-1.7,1.11c0,0-1.98,4.84-4.79,7.96c-0.92,0.92-1.31,1.2-1.81,1.2
	c-0.25,0-0.61-0.28-0.61-1.11v-7.74c0-1-0.28-1.42-1.11-1.42h-6.12c-0.61,0-1,0.47-1,0.89c0,0.95,1.39,1.17,1.56,3.78v5.73
	c0,1.25-0.22,1.48-0.72,1.48c-1.31,0-4.54-4.84-6.43-10.41c-0.39-1.03-0.75-1.47-1.75-1.47h-3.9c-1.11,0-1.34,0.53-1.34,1.11
	c0,1.03,1.31,6.15,6.15,12.91c3.23,4.62,7.76,7.12,11.88,7.12c2.48,0,2.78-0.56,2.78-1.5v-3.51c0-1.11,0.22-1.34,1.03-1.34
	c0.58,0,1.56,0.28,3.87,2.5c2.64,2.64,3.09,3.84,4.56,3.84h3.9c1.11,0,1.67-0.56,1.34-1.64
	C1193.42,890.94,1192.17,889.36,1190.5,887.46z"/>
</svg>
