<?xml version="1.0" encoding="utf-8"?>
<!-- Generator: Adobe Illustrator 25.0.0, SVG Export Plug-In . SVG Version: 6.00 Build 0)  -->
<svg version="1.1" id="Layer_1" xmlns="http://www.w3.org/2000/svg" xmlns:xlink="http://www.w3.org/1999/xlink" x="0px" y="0px"
	 viewBox="0 0 277.7 156.2" style="enable-background:new 0 0 277.7 156.2;" xml:space="preserve">
<style type="text/css">
	.st0{fill:#029C9B;}
</style>
<g>
	<g>
		<polygon class="st0" points="172.6,87.1 169.9,82.4 160.8,87.6 144.4,78.1 160.8,68.6 169.8,73.8 172.6,69 166.3,65.4 175.9,59.9 
			173.1,55.1 163.5,60.6 163.5,53.4 158,53.4 158,63.8 141.6,73.3 141.6,54.3 150.6,49.1 147.9,44.3 141.6,47.9 141.6,36.9 
			136,36.9 136,47.9 129.8,44.3 127,49.1 136,54.3 136,73.3 119.6,63.8 119.6,53.4 114.1,53.4 114.1,60.6 104.5,55.1 101.8,59.9 
			111.4,65.4 105.1,69 107.8,73.8 116.9,68.6 133.3,78.1 116.9,87.6 107.8,82.4 105,87.1 111.4,90.8 101.8,96.3 104.5,101.1 
			114.1,95.6 114.1,102.8 119.6,102.8 119.6,92.4 136,82.9 136,101.9 127,107.1 129.8,111.9 136,108.3 136,119.3 141.6,119.3 
			141.6,108.2 147.9,111.9 150.6,107.1 141.6,101.9 141.6,82.8 158,92.4 158,102.8 163.5,102.8 163.5,95.5 173.1,101.1 175.9,96.3 
			166.3,90.8 		"/>
	</g>
</g>
</svg>
