<?xml version="1.0" encoding="utf-8"?>
<!-- Generator: Adobe Illustrator 25.0.0, SVG Export Plug-In . SVG Version: 6.00 Build 0)  -->
<svg version="1.1" id="Layer_1" xmlns="http://www.w3.org/2000/svg" xmlns:xlink="http://www.w3.org/1999/xlink" x="0px" y="0px"
	 viewBox="0 0 1920 1080" style="enable-background:new 0 0 1920 1080;" xml:space="preserve">
<style type="text/css">
	.st0{clip-path:url(#SVGID_2_);}
	.st1{fill:#263D87;}
	.st2{fill:#F06724;stroke:#C64A27;stroke-width:5;stroke-miterlimit:10;}
	.st3{fill:#C64A27;}
	.st4{fill:#FFFFFF;}
	.st5{fill:none;stroke:#C64A27;stroke-width:5;stroke-linecap:round;stroke-miterlimit:10;}
	.st6{opacity:0.5;}
	.st7{fill:none;}
	.st8{fill:#D25827;}
	.st9{fill:none;stroke:#7F2C19;stroke-width:5;stroke-linecap:round;stroke-miterlimit:10;}
	.st10{fill:#7F2C19;}
	.st11{clip-path:url(#SVGID_4_);}
	.st12{fill:#92B33D;}
	.st13{fill:#B4D034;}
	.st14{fill:#0B0707;}
	.st15{fill:#30499C;}
</style>
<g>
	<defs>
		<rect id="SVGID_1_" x="682.01" y="33.26" width="556.83" height="920.27"/>
	</defs>
	<clipPath id="SVGID_2_">
		<use xlink:href="#SVGID_1_"  style="overflow:visible;"/>
	</clipPath>
	<g class="st0">
		<path class="st1" d="M1093.79,676.3c0,0,3.35-0.97,1.99-5.17s-3.87-3.38-3.9-3.34c-0.03,0.04-0.07,8.14-0.07,8.14L1093.79,676.3z"
			/>
		<g>
			<path class="st2" d="M967.81,470.67c65.91-4.44,110.89,43.69,118.5,106.2c9.79,80.42-11.07,165.66-27.08,243.96
				c-12.92,63.21-26.24,143.72-67.18,196.07c-6.36,8.13-14.18,16.82-24.71,19.13c-52.11,11.42-79.8-154.84-86.09-183.81
				c-16.41-75.55-31.01-154.81-34.96-232.13C841.92,534.72,879.83,476.6,967.81,470.67z"/>
		</g>
		<g>
			<g>
				<path class="st3" d="M954.42,628.64c-2.41,0.02-4.06,2.43-3.2,4.69c2.16,5.65,7.55,11.96,18.31,11.55
					c9.03-0.35,12.8-7.15,14.34-11.91c0.73-2.25-0.94-4.55-3.31-4.53L954.42,628.64z"/>
			</g>
		</g>
		<g>
			<g>
				
					<ellipse transform="matrix(0.9945 -0.1049 0.1049 0.9945 -55.6511 109.6946)" class="st4" cx="1014.72" cy="583.76" rx="11.05" ry="18.16"/>
			</g>
			<g>
				<path class="st4" d="M1008.06,597.53c-2.47-3.24-4.11-7.7-4.63-12.58c-1.07-10.12,3.13-18.9,9.35-19.55
					c6.24-0.66,12.16,7.04,13.23,17.17c0.51,4.88-0.16,9.59-1.9,13.27c-1.76,3.73-4.41,5.96-7.45,6.28
					c-0.25,0.03-0.51,0.04-0.76,0.04C1013.11,602.16,1010.35,600.54,1008.06,597.53z M1012.84,566c-5.89,0.62-9.85,9.1-8.81,18.89
					c0.5,4.77,2.1,9.13,4.51,12.28c2.37,3.1,5.23,4.65,8.06,4.35c2.83-0.3,5.3-2.41,6.97-5.94c1.69-3.58,2.35-8.18,1.84-12.95
					c-0.99-9.41-6.24-16.67-11.87-16.67C1013.3,565.96,1013.07,565.98,1012.84,566z"/>
			</g>
		</g>
		<g>
			<g>
				
					<ellipse transform="matrix(0.1807 -0.9835 0.9835 0.1807 180.6084 1384.3346)" class="st4" cx="921.24" cy="583.76" rx="18.16" ry="11.05"/>
			</g>
			<g>
				<path class="st4" d="M917.9,601.92c-6.16-1.13-9.67-10.2-7.83-20.21l0,0c0.89-4.82,2.87-9.15,5.58-12.19
					c2.75-3.08,5.91-4.47,8.93-3.91c3.01,0.55,5.48,2.98,6.95,6.83c1.45,3.8,1.76,8.55,0.88,13.38c-0.89,4.82-2.87,9.15-5.58,12.19
					c-2.35,2.64-5.01,4.03-7.62,4.03C918.77,602.04,918.33,602,917.9,601.92z M916.1,569.92c-2.64,2.95-4.57,7.18-5.43,11.9
					c-1.78,9.68,1.51,18.43,7.34,19.51c2.8,0.51,5.77-0.81,8.36-3.72c2.64-2.96,4.57-7.18,5.43-11.9c0.87-4.72,0.57-9.35-0.85-13.05
					c-1.39-3.65-3.7-5.94-6.49-6.45c-0.4-0.07-0.79-0.11-1.19-0.11C920.84,566.09,918.34,567.42,916.1,569.92z"/>
			</g>
		</g>
		<path class="st5" d="M994.04,500.02c-8.69,0-18.17,0.39-28.39,1.31"/>
		<path class="st5" d="M1058.06,508.43c0,0-13.4-4.85-37.68-7.19"/>
		<g class="st6">
			<path class="st7" d="M921.41,480.23c18.44-2.19,35.72-4.97,35.77-4.98c192.96-17.46,74.86,553.88-29.7,487.46
				c-10.75-6.83-12.45-13.53-20.55-4.81c-13.96-43.4-22.31-91.35-25.43-105.69c-16.4-75.55-31.01-154.81-34.96-232.13
				C843.05,551.72,866.67,500.84,921.41,480.23z"/>
			<path class="st8" d="M927.48,962.72c104.56,66.42,222.66-504.91,29.7-487.46c-0.05,0-17.34,2.79-35.77,4.98
				c13.61-5.12,29.14-8.38,46.66-9.56c65.91-4.44,110.89,43.69,118.5,106.2c9.79,80.42-11.07,165.66-27.08,243.96
				c-12.92,63.21-26.24,143.72-67.18,196.07c-6.35,8.13-14.18,16.82-24.71,19.13c-26.32,5.77-46.42-33.81-60.67-78.12
				C915.03,949.19,916.73,955.88,927.48,962.72z"/>
		</g>
		<path class="st5" d="M1034.28,930.06c0,0-9.86,3.79-27.78,7.05"/>
		<path class="st5" d="M1042.22,900.64c0,0-18.44,11.64-63.43,11.64"/>
		<path class="st5" d="M932.29,851.75c3.56,0.62,7.33,1.17,11.32,1.62c5.95,0.67,12.38,1.13,19.33,1.31"/>
		<path class="st5" d="M875.57,824.3c0,0,7.63,11.78,31.35,20.69"/>
		<path class="st5" d="M964.32,717.89c6.52,0.49,13.38,0.76,20.57,0.76"/>
		<path class="st5" d="M850.12,666.66c0,0,20.23,30.99,75.87,45.12"/>
		<path class="st5" d="M1012.57,831.49c-12.62,1.4-28.13,2.36-46.92,2.36"/>
		<path class="st5" d="M1059.49,820.83c0,0-8.27,4.37-28.7,8.05"/>
		<path class="st5" d="M1072.77,530.56c0,0-19.85-11.68-68.07-11.68"/>
		<path class="st5" d="M932.29,713.26"/>
		<path class="st9" d="M1069.47,722.6c0,0,120.87,18.25,47.57,121.37"/>
		<path class="st9" d="M875.74,737.76c0,0-98.62-13.73-84.54-108.61"/>
		<g>
			
				<ellipse transform="matrix(0.6761 -0.7368 0.7368 0.6761 -267.9279 1093.2405)" class="st10" cx="1109.41" cy="851.34" rx="14.15" ry="9.6"/>
			
				<ellipse transform="matrix(0.0219 -0.9998 0.9998 0.0219 241.6589 1931.947)" class="st10" cx="1108.24" cy="842.46" rx="5.52" ry="11.32"/>
		</g>
		<g>
			
				<ellipse transform="matrix(0.162 -0.9868 0.9868 0.162 56.0866 1300.9526)" class="st10" cx="794.04" cy="617.45" rx="14.15" ry="9.6"/>
			
				<ellipse transform="matrix(0.8481 -0.5298 0.5298 0.8481 -209.2368 518.6127)" class="st10" cx="799.89" cy="624.23" rx="11.32" ry="5.52"/>
		</g>
		<g>
			<defs>
				<path id="SVGID_3_" d="M1011.09,473.94c0,0-35.58,29.41-77.31,0c-41.73-29.41-136.44-237.57-136.44-237.57L964.41,59.39
					l112.95,18.29c0,0,57.4,129.67,56.49,142.54c-0.92,12.87-78.04,111.86-76.76,114.31S1011.09,473.94,1011.09,473.94z"/>
			</defs>
			<clipPath id="SVGID_4_">
				<use xlink:href="#SVGID_3_"  style="overflow:visible;"/>
			</clipPath>
			<g class="st11">
				<g>
					<path class="st12" d="M987.72,519.7c0.56-2.81,1.13-5.63,1.71-8.44c18.92-90.63,54.86-180.15,107.3-263.76
						c3.06-4.85,0.24-10.77-7.21-14.49c0,0,0,0,0,0c-12.07-6.07-29.55-3.15-33.13,5.21c-41,93.37-66.93,190.37-77.61,287.39
						C981.72,523.61,984.7,521.64,987.72,519.7z"/>
				</g>
				<path class="st13" d="M1036.34,139.78l-43.2,363.38l-23.1,29.33l16-396.71c0.51-12.52,10.11-22.78,22.57-24.1h0
					C1024.72,109.98,1038.25,123.68,1036.34,139.78z"/>
				<path class="st12" d="M943.2,148.73L943.2,148.73c-14.66,0.87-25.6,13.84-24,28.44l38.95,355.31l16.88-15.01l-4.64-343.45
					C970.2,159.38,957.82,147.86,943.2,148.73z"/>
				<g>
					<path class="st13" d="M856.6,239.72L856.6,239.72c-14.65,4.47-21.24,17.46-14.87,28.08c48.73,81.82,87.94,166.7,117.44,253.01
						c3.21-2.55,6.44-5.09,9.71-7.61c-18.82-87.68-44.63-174.82-77.38-260.59C887.24,241.31,871.15,235.27,856.6,239.72z"/>
				</g>
			</g>
		</g>
		<g>
			<ellipse class="st14" cx="920.5" cy="584.76" rx="6.79" ry="6.79"/>
			<circle class="st4" cx="917.58" cy="580.92" r="1.91"/>
		</g>
		<g>
			<ellipse class="st14" cx="1014.3" cy="583.8" rx="6.79" ry="6.79"/>
			<circle class="st4" cx="1010.96" cy="579.96" r="1.91"/>
		</g>
		<path class="st5" d="M912.9,563.47c0,0,13.06-6.84,20.72,0"/>
		<path class="st5" d="M1002.11,566.09c0,0,10.82-12.72,25.22,1.57"/>
		<path class="st8" d="M1055.61,724.21c0,0-103.04,7.75-139.88,0.91c0,0,3.81,9.77,7.28,16.55c3.58,6.99,5.02,12.86-7.78,16.39
			c-12.79,3.53-43.35,3.37-45.33,1.82s-5.8-8.77-5.8-8.77l-7.13-41.52l199.96,2.71L1055.61,724.21z"/>
		<path class="st15" d="M840.71,653.42"/>
		<path class="st15" d="M846.21,653.51c0,0,138.2,50.46,242.61,4.56c0,0,0.51-4.28,2.66-4.65s4.47,25.78,3.81,30.41
			c-0.66,4.63-150.56,40.55-249.33-3.48c0,0-1.82-0.77-1.71-4.14c0.11-3.37-0.11-22.34,0.77-24.55
			C845.89,649.46,846.21,653.51,846.21,653.51z"/>
		<path class="st15" d="M1095.15,675.05c0,0,3,2.65,3,9.72c0,7.06-3.44,26.31-9.33,28.49c-5.89,2.18-44.44,9.24-79.77,9.91
			c-35.32,0.66-79.36,1.99-102.12-2.65s-52.99-11.03-58.28-13.46c-5.29-2.43-9.04-13.68-9.04-20.52c0-6.84,1.76-17.66,4.63-13.68
			c2.87,3.97,39.32,16.33,81.76,21.85c42.44,5.52,99.36-0.66,131.79-9.49C1090.21,676.38,1095.15,675.05,1095.15,675.05z"/>
		<path class="st1" d="M1096.72,696.47c0,0-52.4,15.83-89.21,16c-36.81,0.17-79.83-3.31-106.47-9.27s14.98,14.38,86.37,15.07
			c71.38,0.69,107.04-13.34,107.04-13.34L1096.72,696.47z"/>
		<path class="st15" d="M859.11,710.12c0,0,3.55,26.35,9.34,40.25c4.86,11.67,32.82,7.64,41.7,6.04c2.69-0.49,5.27-1.55,7.43-3.23
			c2.27-1.77,4.35-4.36,3.6-7.67c-1.5-6.62-7.46-23.86-7.46-23.86l-53.82-11.34L859.11,710.12z"/>
		<path class="st1" d="M859.49,712.75c0,0,10.23,5.07,24.02,8.44c13.79,3.37,12.41,2.21,18.7,2.98c6.29,0.77,12.87,1.46,12.27-0.3
			c-0.6-1.75-0.76-2.21-0.76-2.21l-54.61-11.53L859.49,712.75z"/>
		<path class="st15" d="M874.2,754.89l-2.04,14.41c-0.17,1.23,0.68,2.36,1.91,2.54l0,0c1.42,0.2,2.66-0.96,2.56-2.39l-0.21-14.42
			c-0.01-0.58-0.46-1.06-1.04-1.09l0,0C874.79,753.9,874.28,754.32,874.2,754.89z"/>
		<path class="st15" d="M878.79,756.2l-0.01,14.56c0,1.24,1,2.25,2.24,2.25l0,0c1.43,0,2.5-1.32,2.2-2.72L881,756.03
			c-0.09-0.57-0.6-0.98-1.18-0.94l0,0C879.24,755.13,878.79,755.62,878.79,756.2z"/>
		<path class="st15" d="M883.44,756.61l2.12,14.4c0.18,1.23,1.32,2.08,2.55,1.9l0,0c1.42-0.21,2.28-1.67,1.78-3.01l-4.28-13.78
			c-0.17-0.55-0.74-0.88-1.31-0.76l0,0C883.73,755.49,883.36,756.03,883.44,756.61z"/>
		<path class="st15" d="M888.61,756.49l4.15,13.95c0.35,1.19,1.6,1.87,2.79,1.51l0,0c1.37-0.41,2.02-1.98,1.33-3.24l-6.2-13.03
			c-0.25-0.52-0.86-0.77-1.4-0.56l0,0C888.74,755.35,888.45,755.94,888.61,756.49z"/>
		<path class="st15" d="M894.24,755.96l5.84,13.33c0.5,1.14,1.82,1.65,2.96,1.16l0,0c1.31-0.57,1.76-2.21,0.92-3.37l-7.76-12.16
			c-0.31-0.49-0.95-0.66-1.46-0.38l0,0C894.23,754.8,894.01,755.43,894.24,755.96z"/>
		<path class="st15" d="M900.95,755.88l6.29,11.43c0.54,0.97,1.76,1.33,2.73,0.79l0,0c1.12-0.62,1.39-2.12,0.55-3.09l-7.91-10.22
			c-0.32-0.41-0.9-0.51-1.33-0.22l0,0C900.84,754.85,900.69,755.42,900.95,755.88z"/>
		<path class="st15" d="M907.44,755.63l6.65,8.81c0.57,0.75,1.63,0.9,2.38,0.33l0,0c0.87-0.65,0.91-1.94,0.09-2.65l-7.86-7.61
			c-0.32-0.31-0.81-0.32-1.14-0.03l0,0C907.23,754.78,907.18,755.28,907.44,755.63z"/>
		<path class="st15" d="M911.54,752.6l7.69,7.92c0.65,0.67,1.73,0.69,2.41,0.04l0,0c0.78-0.76,0.66-2.04-0.24-2.64l-8.74-6.58
			c-0.35-0.26-0.85-0.21-1.14,0.11l0,0C911.22,751.79,911.23,752.29,911.54,752.6z"/>
		<path class="st15" d="M915.27,749.27l9.16,6.16c0.78,0.52,1.84,0.32,2.36-0.46l0,0c0.61-0.9,0.23-2.13-0.78-2.53l-9.91-4.62
			c-0.4-0.19-0.87-0.03-1.09,0.35l0,0C914.79,748.54,914.9,749.03,915.27,749.27z"/>
		<path class="st1" d="M1095.15,675.05c0,0-35.74,12.47-66.59,16.29s39.52-6.03,66.11-22.25L1095.15,675.05z"/>
		<path class="st1" d="M844.3,667.22c0,0-2.17,0.38-1.97,3.62s2.14,3.12,2.17,3.09c0.03-0.02,1.54-5.79,1.54-5.79L844.3,667.22z"/>
		<path class="st1" d="M844.3,667.22c0,0,57.85,28.03,103.84,28.47s-8.38,5.3-46.55-3.42c-38.16-8.72-57.36-18.32-57.36-18.32
			L844.3,667.22z"/>
		<path class="st1" d="M1092.39,697.72c0,0,4.46-1.72,4.94-1.41c0.48,0.31,0.92,7.34-2.47,8.57c-3.39,1.22-4.25,1.36-4.25,1.36
			L1092.39,697.72z"/>
	</g>
</g>
</svg>
