<?xml version="1.0" encoding="utf-8"?>
<!-- Generator: Adobe Illustrator 25.0.1, SVG Export Plug-In . SVG Version: 6.00 Build 0)  -->
<svg version="1.1" id="Layer_1" xmlns="http://www.w3.org/2000/svg" xmlns:xlink="http://www.w3.org/1999/xlink" x="0px" y="0px"
	 viewBox="0 0 500 500" style="enable-background:new 0 0 500 500;" xml:space="preserve">
<style type="text/css">
	.st0{fill:#30499C;}
</style>
<g>
	<path class="st0" d="M233.14,250.73l54.31-29.1L246.7,260.8l-1.92,17.91l11.1-10.74l36.26,29.49l18.26-97.71l-101.59,42.27
		L233.14,250.73z M233.14,250.73"/>
	<path class="st0" d="M327.1,131.05H172.9c-23.11,0-41.85,18.74-41.85,41.85v154.2c0,23.11,18.74,41.85,41.85,41.85h154.2
		c23.11,0,41.85-18.74,41.85-41.85V172.9C368.95,149.79,350.21,131.05,327.1,131.05z M305.44,318.12c0,0-3.59,9.52-13.46,4.95
		l-36.49-29.67l-23.4,22.64c0,0-1.83,1.46-3.83,0.55c0,0-1.72-0.18-3.88-7.39c-2.15-7.24-13.09-45.29-13.09-45.29l-36.23-12.94
		c0,0-5.56-2.09-6.09-6.66c-0.54-4.57,6.28-7.05,6.28-7.05l143.98-59.92c0,0,11.84-5.52,11.84,3.61L305.44,318.12z"/>
	<path class="st0" d="M301.86,316.34"/>
</g>
</svg>
