<?xml version="1.0" encoding="utf-8"?>
<!-- Generator: Adobe Illustrator 25.0.0, SVG Export Plug-In . SVG Version: 6.00 Build 0)  -->
<svg version="1.1" id="Layer_1" xmlns="http://www.w3.org/2000/svg" xmlns:xlink="http://www.w3.org/1999/xlink" x="0px" y="0px"
	 viewBox="0 0 1920 1080" style="enable-background:new 0 0 1920 1080;" xml:space="preserve">
<style type="text/css">
	.st0{opacity:0.5;fill:#BAC5D8;}
	.st1{fill:#C5CFE5;}
	.st2{fill:#F5F8FC;}
	.st3{fill:#E8EAEE;}
</style>
<ellipse class="st0" cx="960.32" cy="897.75" rx="203.32" ry="19.98"/>
<path class="st1" d="M1037.91,911.4c-7.04,0-12.91-5.6-12.99-12.64c0-0.11,0-0.22,0-0.34c0-20.29,21.77-36.74,48.62-36.74
	c26.85,0,48.62,16.45,48.62,36.74c0,0.11,0,0.22,0,0.34c-0.08,7.04-5.96,12.64-12.99,12.64H1037.91z"/>
<path class="st2" d="M967.28,614.17c97.85,0,169.67,72.68,169.67,162.34c0,56.46-41.35,106.23-101.17,129.55
	c-9.02,3.51-18.6,5.34-28.28,5.34H906.96c-9.28,0-18.52-1.61-27.19-4.93c-55.61-21.28-92.7-67.52-95.91-138.72
	C779.81,678.19,869.43,614.17,967.28,614.17z"/>
<path class="st3" d="M815.4,678.52c-0.3,4.38-0.36,8.85-0.15,13.38c2.97,65.8,25.87,103.67,77.27,123.35
	c8.01,3.07,53.42,20,79.11,20c25.69,0,68.14-12.26,76.47-15.51c39.93-15.56,70.97-43.89,85.12-78.09
	c2.45,11.23,3.73,22.9,3.73,34.86c0,56.46-41.35,106.23-101.17,129.55c-9.02,3.51-18.6,5.34-28.28,5.34H906.96
	c-9.28,0-18.52-1.61-27.19-4.93c-55.61-21.28-92.7-67.52-95.91-138.72C782.32,733.58,794.41,703.12,815.4,678.52z"/>
<path class="st1" d="M877.41,911.4c-7.15,0-13.17-5.69-13.2-12.84c0-0.05,0-0.09,0-0.14c0-20.29,19.66-36.74,43.91-36.74
	s43.91,16.45,43.91,36.74c0,0.05,0,0.09,0,0.14c-0.03,7.15-6.05,12.84-13.2,12.84H877.41z"/>
<path class="st2" d="M1027.57,442.73c14.42,5.8,71.75,34.7,71.75,101.92c0,67.22-38.46,93.29-55.96,93.29
	c-9.69,0-131.31-1.06-141.94-0.43c-10.63,0.63-45.65,4.06-56.59-26.26c-10.94-30.33-33.16-82.71-3.75-126.31
	c27.41-40.64,41.56-51.85,91.82-51.48C990.42,433.88,1013.97,437.26,1027.57,442.73z"/>
<path class="st3" d="M841.07,484.94c6.12-9.07,11.57-16.67,16.92-23.01c-12.86,32.97-0.31,61.7,8.35,85.71
	c10.27,28.45,49.34,45.72,65.24,51.31c18.05,6.35,106.02,0.12,126.14-12.22c9.22-5.66,29.08-14.48,41.55-37.86
	c-1.57,64.09-38.78,89.07-55.91,89.07c-9.69,0-131.31-1.06-141.94-0.43c-10.63,0.63-45.65,4.06-56.59-26.26
	C833.88,580.93,811.67,528.55,841.07,484.94z"/>
</svg>
