<?xml version="1.0" encoding="utf-8"?>
<!-- Generator: Adobe Illustrator 25.0.0, SVG Export Plug-In . SVG Version: 6.00 Build 0)  -->
<svg version="1.1" id="Layer_1" xmlns="http://www.w3.org/2000/svg" xmlns:xlink="http://www.w3.org/1999/xlink" x="0px" y="0px"
	 viewBox="0 0 1920 1080" style="enable-background:new 0 0 1920 1080;" xml:space="preserve">
<style type="text/css">
	.st0{fill:#669998;}
	.st1{fill:#C2BFE0;}
	.st2{fill:#4A59A7;}
	.st3{fill:#FCCD99;}
	.st4{fill:#996798;}
	.st5{fill:#669940;}
	.st6{fill:#F06825;}
	.st7{fill:#6269B0;}
	.st8{fill:#631113;}
	.st9{opacity:0.77;fill:#4F7476;enable-background:new    ;}
	.st10{opacity:0.2;fill:#5457A4;enable-background:new    ;}
	.st11{fill:#517535;}
	.st12{fill:#976A2A;}
	.st13{fill:#BC9896;}
	.st14{fill:#FFFFFF;}
	.st15{fill:#5457A4;}
	.st16{fill:#BF5328;}
</style>
<g>
	<g>
		<g>
			<path class="st0" d="M752.02,738.62c0.53,5.27,4.22,9.58,6.9,14.02l4.75,12.39c1.89,4.92,2.68,11.08,6.37,14.94
				c7.34,7.6,20.04,14.07,30.86,11.12c3.56-0.97,4.7-5.8,4.7-10.02c0-5.41-4.22-9.14-6.33-13.76c-2.64-5.8-3.43-12.22-4.13-18.5
				c0.31-0.57,0.66-1.1,1.05-1.67c2.2-3.21,5.27-6.02,8.4-8.66c0.83,1.23,3.38,0.53,3.25-1.41c-0.44-7.34-8.7-11.74-13.85-15.69
				c-3.03-2.37-6.42-5.93-10.02-7.43c-2.46-1.01-4.35,0.13-6.29,1.58c-1.32,1.01-2.64,2.07-3.91,3.12
				c-0.26-0.18-0.57-0.31-0.88-0.48c-0.7-0.31-1.67,0-2.07,0.62c-2.59,3.74-7.47,5.71-11.6,8.18c-2.15,1.27-4.09,2.68-5.45,4.53
				c-0.92,0.53-1.63,1.36-1.93,2.68c-0.26,1.05-0.18,2.15,0.09,3.21C751.94,737.74,751.98,738.18,752.02,738.62z"/>
			<path class="st0" d="M958.87,792.73c4.04,6.29,4.88,14.28,8.48,20.88c3.08,5.54,7.52,10.42,13.58,12.66
				c11.56,4.31,27.03-7.47,18.77-24.22c-3.43-6.94-4.48-7.74-7.47-14.86c-1.85-4.4-3.69-8.09-2.9-12.97v-0.04
				c0.57-3.43,1.41-6.51,1.01-10.02c-0.18-1.54-1.85-1.76-2.81-1.01c-0.22-0.44-0.66-0.79-1.32-0.84
				c-9.71-0.79-19.25-2.33-28.7-4.66c-1.23-0.31-2.73,0.53-2.37,1.98c1.36,6.07-2.46,11.47-3.56,17.27
				c-0.09,0.4-0.13,0.79-0.18,1.19C950.47,785.03,955.48,787.45,958.87,792.73z"/>
			<path class="st1" d="M1126.73,430.24c5.71,9.49,19.16,16.31,28.79,7.74c8.88-7.87,8.44-23.16-2.59-28.57
				c-5.54-2.73-12.88-5.01-19.12-4.66c-2.46,0.13-4.83,1.05-6.55,2.55c-2.07,1.23-3.69,3.34-4.35,5.89
				C1121.49,418.81,1123.82,425.45,1126.73,430.24z"/>
			<path class="st2" d="M934.08,354.42c0.04,5.71,5.32,9.49,9.45,12.53c5.19,3.82,10.55,7.52,16.57,9.8
				c6.55,2.46,13.54,3.16,20.48,3.56c7.56,0.44,15.21,0.48,22.64,2.11c7.16,1.54,13.98,4.35,21.01,6.33
				c6.59,1.85,13.05,2.51,19.87,2.86c7.6,0.4,14.86,1.27,21.01,6.11c5.01,3.91,9.01,9.01,14.2,12.79
				c5.14,3.74,10.99,6.37,17.14,7.96c1.85,0.48-1.89-2.77-1.71-14.59c0.04-3.34,0.26-8.44-1.36-11.34c-1.93-3.47-2.2-2.77-4.26-6.07
				s-2.9-7.3-0.44-9.45c1.93-1.71,2.42-2.07,3.6-4.35c1.1-2.2,1.58-4.31-0.04-4.35c-8.22-0.18-13.71-0.44-20.83-4.88
				c-5.41-3.38-11.08-4.92-17.41-5.32c-7.08-0.48-14.28,0-21.27,1.27c-7.34,1.32-14.11,4.22-21.32,6.11
				c-4.04,1.05-8.26,1.63-12.35,0.4c-3.38-1.01-6.37-3.08-9.32-4.97c-5.71-3.6-11.52-5.8-18.06-7.38
				c-6.86-1.67-13.14-3.47-19.47-6.68c-4.31-2.2-8.66-3.87-12.97-0.97c-0.44,0.31-0.66,0.66-0.7,1.05
				C935.79,348.14,934.03,351.04,934.08,354.42z"/>
			<path class="st3" d="M976.98,305.72c-11.52-0.35-23.21,6.15-27.73,17.01c-3.74,9.01-5.67,21.14-3.16,30.46
				c2.24,8.39,10.9,12.92,19.43,14.24c16.53,2.55,33.62-9.67,37.54-25.76c3.96-16.39-7.34-34.24-24-37.23
				C978.03,304.27,977.24,304.93,976.98,305.72z"/>
			<path class="st4" d="M797.69,292.67c-1.27-1.58,0.66-4.18,2.29-2.68c0.26,0.22,0.48,0.44,0.75,0.66
				C799.67,291.31,798.66,292.01,797.69,292.67z"/>
			<path class="st5" d="M948.93,320.71c2.59,1.23,6.68,2.46,8.79,3.03c14.15,3.91,30.02,18.06,38.46,30.06
				c0.62,0.88,2.86,3.12,3.52,2.68c0.57,0,1.19-0.31,1.8-0.79c2.9-2.24,6.15-8.75,6.86-10.11c3.69-7.52,7.25-16.66,6.94-25.14
				c-0.18-4.88-0.48-14.37-2.73-18.42h0.04c0.97-0.22,1.93-0.57,2.99-1.14c3.6-2.02,6.64-5.36,8-8.75c1.32-3.3,1.14-6.68-1.45-9.14
				c-9.98-9.49-20.79-9.67-25.45-4.75c-2.68,2.81-2.81,7.78-1.14,11.65c-6.07-1.01-17.93,0.4-23.47,3.03
				c-6.42,3.08-10.94,6.94-15.82,12.18c-2.77,2.99-7.38,10.15-9.71,13.49C946.21,319.17,947.26,319.96,948.93,320.71z"/>
			<path class="st6" d="M791.05,301.5c0.48,0.53,0.97,1.1,1.36,1.76c-0.04,0.13-0.09,0.26-0.13,0.4
				C791.84,302.91,791.45,302.21,791.05,301.5z M784.99,304.4c1.71,1.71,3.82,3.38,5.71,4.79c0,0.4,0.13,0.75,0.4,0.97
				c30.2,28.79,18.9,16.09,46.99,46.94c0.53,0.62,35.43,36.48,42.02,42.15l0.97-3.47c1.85-6.77,4.57-12.04,7.91-18.24
				c4-7.47,8.13-9.05,13.71-13.93c0.7-0.62,5.36-3.87,6.51-3.91c2.11-0.09,7.47-0.62,12.18-0.53c0.66-0.13,0.83-0.84,0.83-0.84
				c-37.1-17.1-34.15-10.59-55.65-24.7c-0.75-0.79-58.37-40.74-59.16-41.49l-2.55-2.68c-3.6,3.6-3.43,7.12-9.63,9.58
				C792.9,299.92,786.88,302.69,784.99,304.4z"/>
			<path class="st6" d="M1005.19,461.93c21.23,20.22,51.21,38.77,51.25,38.85c3.91,4.48,11.47,2.42,16.61,0.57
				c26.59-9.45,52.79-16.09,74.19-35.25c0.62-0.53-1.89-3.78-2.24-4.53c-0.13-0.31-0.26-0.57-0.4-0.88
				c-2.68-6.11-5.41-12.18-8.09-18.24c-0.31-0.66-1.05-1.1-1.8-1.05c-0.18,0-0.4,0.04-0.57,0.18c-11.52,5.89-23.43,11.08-35.6,15.43
				c-6.46,2.29-13.01,4.35-19.6,6.2c-3.6,0.97-7.52,2.59-11.08,0.62c-2.24-1.23-4.18-3.52-6.02-5.23
				c-9.27-8.61-12.04-16.22-20.22-25.89c-4-4.79-10.02-13.32-13.36-18.59c-2.15-3.43-8.09-12.26-10.86-15.25
				c-0.62,3.03-2.11,10.9-3.21,10.15C1004.62,429.93,1008.8,441.23,1005.19,461.93z"/>
			<path class="st7" d="M768.77,713.13c0.62,1.85,1.76,3.47,3.25,4.88c3.96,3.82,10.15,6.37,14.15,8.75
				c8.66,5.19,9.76,6.46,18.42,11.6c0.13,0.09,0.62,0.31,1.27,0.62c2.64,1.19,8.35,3.6,8.79,2.9c8.35-14.46,16.7-28.92,25.01-43.38
				c7.03-12.18,9.54-17.36,17.05-29.27c3.65-5.76,14.59-16.97,19.25-21.93c4.75-5.01,7.12-10.86,10.64-16.79
				c12.83-21.76,20.48-34.28,33.01-55.47c0.53-0.88,2.81,5.58,3.34,8.48c2.11,11.87,7.47,12.61,11.69,24.04
				c2.33,6.29,14.77,33.45,14.72,42.42c-0.18,36.74,1.19,35.91,1.01,72.61c0,0.97-4.57,40.66-3.56,40.79
				c3.03,0.35,5.8,0.57,8.4,0.75c10.15,0.66,18.11,0.48,29.76,1.76c0.44,0.04,2.95,0.13,5.45,0.09c2.95,0,5.93-0.18,5.98-0.66
				c1.67-36.13,4.62-72.48,4.48-108.7c-0.09-16.88-1.67-31.73-5.8-48.13c-2.81-10.99-5.71-25.49-7.52-38.72
				c-0.75-5.36-1.27-10.5-1.58-15.12c2.64-3.78,1.67-3.43-0.22-7.82c-2.59-6.11-8.75-9.45-14.59-11.82
				c-15.65-6.29-31.91-11.74-48.08-16.39c-15.78-4.57-31.95-8.09-48.35-9.23c-5.32-0.35-12.7-1.58-16.66,2.99
				c-4.13,4.83-2.64,13.8-4.13,19.56c-1.23,4.62-2.29,10.2-3.12,16c-1.98,13.23-2.95,27.73-2.59,35.03
				c-0.22,5.1-0.75,12.09-1.01,17.19c-0.57,10.46-4,16.31-10.55,24.22c-12.75,15.52-18.99,24.66-31.82,40.09
				c-6.55,7.87-15.87,28.13-22.42,36C778.35,705.3,766.44,705.92,768.77,713.13z"/>
			<path class="st6" d="M847.53,518.37c-0.13,0.44,3.03,0.92,7.69,1.45c8.79,1.01,22.99,2.29,30.86,4.04
				c11.91,2.68,20.92,9.05,33.05,10.42c22.86,2.55,38.24,9.23,54.15,17.01c1.19,0.57,11.43,3.56,12.48,4.26
				c0.09,0.04,0.18,0.09,0.22,0.13c6.29,2.55,12.88-64.52,18.24-89.05c0.35-1.63,0.66-3.16,0.92-4.7c3.6-20.75-0.57-32,9.05-53.05
				c1.1,0.75,3.34-3.87,4-6.9c0.18-0.92,0.22-1.71,0.04-2.15c-5.23-12.09-17.45-18.06-24.04-20.92c-8.53-3.69-19.16,6.59-27.73,3.03
				c-17.32-7.12-9.32-5.01-26.9-11.47c-0.04-0.09-7.6-12.7-7.65-12.79c-1.01-1.23-20.97-5.76-23.08-5.67
				c-1.19,0.04-13.63,9.01-20.92,23.78c-3.12,6.33-5.01,13.19-6.86,19.95l-0.97,3.47l-5.58,20.35
				C865.55,452.53,856.54,485.45,847.53,518.37z"/>
			<path class="st7" d="M928.63,361.72c0.53,1.23,1.14,2.42,1.76,3.56c0.26,0.53,0.57,1.01,0.88,1.49
				c3.52,5.58,8.48,10.11,14.42,13.14c2.37,1.23,4.7,2.07,7.03,2.64c2.07,0.97,4.18,1.8,6.37,2.42c6.51,1.85,9.45,3.6,16,2.24
				c2.42-0.53,6.11-1.41,8.09-1.23c1.76,0.62,4.66-0.35,6.46,0c0.88,0.18,1.76,0.22,2.55,0.04c0.53,0.09,1.76-1.1,2.9-2.29
				c9.93,2.9,18.33,9.23,26.02,16.26c8.53,7.78,16.39,16.48,26.2,22.72c4.79,3.03,9.85,5.01,15.21,6.86
				c5.89,2.07,12.53,5.01,13.19,12.04c0.09,0.97,1.14,1.58,2.07,1.45c4.26-0.66,6.94-3.56,8.83-7.3c2.46-4.79,3.12-12.88,9.23-14.5
				c1.19-0.31,2.07-1.8,1.1-2.86c-6.77-7.3-14.81-13.23-23.87-17.36c-9.27-4.22-19.12-5.54-29.01-7.65
				c-6.02-1.27-11.96-2.99-17.19-6.33c-4.44-2.81-8.18-6.59-12.04-10.07c-6.15-5.54-13.27-10.55-21.54-10.99
				c-0.13-1.05-0.35-1.93-1.23-2.29c-0.35-1.23-16.44,5.89-19.3,5.49c-4.48-0.62-12.57-1.14-16.75-2.9
				c-3.96-1.63-7.69-9.32-9.85-13.14c-1.14-2.07,0.26-4.88-1.85-6.29c-3.43-2.29-6.81,0.09-8.44,3.25
				c-1.14,2.15-1.49,4.18-3.47,5.89c-0.7,0.57-1.58,0.84-2.2,1.54c-0.53,0.62-0.83,1.32-0.97,2.02
				C928.58,360.05,928.23,360.84,928.63,361.72z"/>
			<path class="st8" d="M768.81,283.61c0.09,4.62,9.89,10.99,12.48,14.02c2.86,3.38,2.73,8.75,8.66,6.33
				c5.36-2.2,9.93-6.29,13.49-10.72c1.23-1.49-0.66-3.21-2.11-2.64c-1.49-6.59-2.86-13.27-4.62-19.78
				c-1.23-4.66-1.71-14.11-6.42-16.09c-11.38-4.83-15.47,15.43-14.15,23.03c0.26,1.63,1.36,4.04-0.26,5.41
				c-0.66,0.53-6.11-3.65-6.81-3.12C767.98,280.8,768.77,282.3,768.81,283.61z"/>
			<path class="st8" d="M1134.77,441.41c0.75-0.09,1.49,0.35,1.8,1.05c2.68,6.11,5.41,12.18,8.09,18.24
				c0.22-0.26,0.4-0.57,0.48-0.97c4.7-4.79,12.04-6.24,17.14-10.68c6.77-5.89,5.67-15.78,6.11-23.91c0.18-3.47,1.71-9.14-0.35-12.35
				c-1.32-2.07-3.82-2.15-5.49-0.48c-2.77,2.77-3.52,8.79-4.75,12.39c-1.23,3.69-2.42,10.15-6.2,12.48
				c-0.57-2.99-1.19-5.98-1.76-8.97c-0.18-0.92-1.1-1.67-2.07-1.45c-5.36,1.14-4.7,6.72-8.13,9.93
				C1137.89,438.42,1136.04,439.69,1134.77,441.41z"/>
			<path class="st9" d="M951.53,776.81c2.02-0.84,4.09-1.58,6.24-2.2c9.01-2.64,22.37-5.19,31.65-0.53c0.44-2.77,1.1-5.32,1.1-8.09
				c-2.55,0-5.01-0.04-5.45-0.09c-11.65-1.27-19.6-1.1-29.76-1.76C954.65,768.42,952.32,772.51,951.53,776.81z"/>
			<path class="st9" d="M759.23,726.93c3.25,0.7,6.51,1.58,9.67,2.68c10.33,3.56,20.22,9.23,27.34,17.45
				c2.2-3.21,5.27-6.02,8.4-8.66c-8.66-5.19-9.76-6.46-18.42-11.6c-4-2.37-10.2-4.92-14.15-8.75c-0.48,0.04-0.97,0.31-1.23,0.7
				C768.24,722.44,763.36,724.47,759.23,726.93z M805.91,739.01c-0.66-0.31-1.1-0.53-1.27-0.62
				C804.9,738.79,805.38,739.01,805.91,739.01z"/>
			<path class="st10" d="M850.79,547.95c21.45-8.66,45.8-6.37,68.35-2.81c14.55,2.29,29.4,4.83,42.72,11.43
				c8.61,4.26,16.57,10.33,25.71,13.27c-0.7-4.97-1.23-9.76-1.49-14.11c-0.09-0.04-0.18-0.09-0.22-0.13
				c-1.05-0.75-11.3-3.69-12.48-4.26c-15.91-7.78-31.29-14.46-54.15-17.01c-12.13-1.36-21.14-7.74-33.05-10.42
				c-7.87-1.76-22.06-3.03-30.86-4.04c-0.57,4.13-0.4,8.7-1.32,12.13C852.72,536.57,851.67,542.15,850.79,547.95z"/>
			<path class="st11" d="M999.74,293.2c0.18,0.04,0.31,0.13,0.44,0.18c1.49,3.78,5.27,5.63,9.63,6.15c0.75,1.05,1.67,1.89,2.77,2.55
				c0.97-0.22,1.93-0.57,2.99-1.14c3.6-2.02,6.64-5.36,8-8.75c-10.02,5.05-14.68-2.59-21.98-2.07c-0.22-0.09-0.4-0.18-0.62-0.22
				C998.82,289.06,997.59,292.4,999.74,293.2z"/>
		</g>
		<path class="st12" d="M950.52,323.83c0.75-0.84,4.48,0.48,5.19,0.62c2.02,0.53,3.96,1.14,5.89,1.98c0.4,0.18,0.79,0.22,1.1,0.09
			c0.04,0,0.04,0.04,0.04,0.04c4.48,2.73,8.97,5.45,13.14,8.66c3.34,2.59,6.07,5.8,9.19,8.61c0.04,0.26,0.13,0.53,0.35,0.79
			c1.41,1.98,2.9,3.87,4.22,5.89c2.02,3.03,1.85,5.05,2.07,8.53c0.18,2.59,1.71,4.97,4.22,5.76c1.85,0.57,4.35,0.31,5.14-1.76
			c0.22-0.57,0.26-1.05,0.22-1.49c0.44,0,0.88,0,1.27,0.04c0.83,0.09,1.45-0.44,1.8-1.14c1.41-2.73-0.79-3.78-2.9-4.79
			c-0.62,0.48-1.23,0.79-1.8,0.79c-0.66,0.44-2.9-1.8-3.52-2.68c-8.44-11.96-24.31-26.15-38.46-30.06c-2.11-0.57-6.2-1.8-8.79-3.03
			c-0.44,0.26-0.88,0.62-1.27,1.05C946.12,323.48,949.02,325.55,950.52,323.83z"/>
	</g>
	<path class="st13" d="M956.32,339.83c-0.13,0-0.22-0.04-0.35-0.13c-1.41-1.05-1.98-2.11-1.58-3.16c0.31-0.84,1.1-1.27,1.8-1.58
		l6.77-2.94c0.31-0.13,0.7,0,0.83,0.35c0.13,0.31,0,0.7-0.35,0.84l-6.77,2.94c-0.48,0.22-0.97,0.44-1.1,0.84
		c-0.22,0.57,0.62,1.32,1.14,1.71c0.26,0.22,0.35,0.62,0.13,0.88C956.76,339.74,956.54,339.83,956.32,339.83z"/>
	<path class="st13" d="M960.41,332.31c-0.26,0-0.48-0.18-0.57-0.44c-0.7-2.33-3.47-3.82-5.8-3.16c-0.35,0.09-0.7-0.09-0.79-0.44
		c-0.09-0.35,0.09-0.7,0.44-0.79c2.99-0.88,6.51,1.05,7.38,4c0.09,0.35-0.09,0.7-0.44,0.79
		C960.58,332.31,960.49,332.31,960.41,332.31z"/>
	<path class="st13" d="M972.14,341.94c-0.31,0-0.57-0.26-0.62-0.57c-0.22-2.33-2.24-4.4-4.57-4.66c-0.35-0.04-0.62-0.35-0.57-0.7
		c0.04-0.35,0.35-0.62,0.7-0.57c2.9,0.35,5.41,2.9,5.71,5.8c0.04,0.35-0.22,0.66-0.57,0.7
		C972.23,341.94,972.19,341.94,972.14,341.94z"/>
	<path class="st14" d="M963.53,346.82c-0.92,1.01-1.89,2.07-3.08,2.77c-1.19,0.7-2.68,1.1-4,0.66c-1.98-0.62-1.98-5.54-1.98-5.54
		S961.2,349.37,963.53,346.82z"/>
	<path class="st15" d="M820.94,724.6c-0.13,0-0.26-0.04-0.4-0.13c-0.48-0.26-0.62-0.84-0.35-1.32
		c12.44-22.2,28.13-42.77,43.29-62.68c5.41-7.08,10.99-14.37,16.31-21.62c18.55-25.23,38.68-55.73,47.03-90.68
		c0.13-0.53,0.66-0.84,1.14-0.7c0.53,0.13,0.83,0.66,0.7,1.14c-8.44,35.25-28.7,65.97-47.38,91.38
		c-5.36,7.3-10.94,14.59-16.35,21.67c-15.16,19.82-30.81,40.35-43.16,62.46C821.65,724.42,821.29,724.6,820.94,724.6z"/>
	<path class="st15" d="M988.89,760.16c-0.04,0-0.09,0-0.13,0c-0.53-0.13-0.83-0.62-0.75-1.14c9.93-45.54,11.03-92.08,3.47-150.98
		c-0.09-0.53,0.31-1.01,0.83-1.1c0.53-0.09,1.01,0.31,1.1,0.84c7.56,59.12,6.46,105.88-3.52,151.64
		C989.77,759.85,989.33,760.2,988.89,760.16z"/>
	<path class="st16" d="M929.9,523.56c-0.04,0-0.13,0-0.18-0.04c-0.53-0.13-0.83-0.66-0.7-1.19c10.72-43.56,19.34-88.21,25.54-132.61
		c0.09-0.53,0.57-0.88,1.1-0.84c0.53,0.09,0.88,0.57,0.83,1.1c-6.2,44.48-14.81,89.18-25.58,132.83
		C930.83,523.25,930.39,523.56,929.9,523.56z"/>
	<path class="st16" d="M904.1,468.26c-6.99-0.44-13.93-2.02-20.48-4.7c-0.48-0.22-0.75-0.75-0.53-1.27
		c0.22-0.48,0.75-0.75,1.27-0.53c10.42,4.22,21.8,5.63,32.92,4.09c0.53-0.04,1.01,0.31,1.1,0.84c0.09,0.53-0.31,1.01-0.83,1.1
		C913.07,468.39,908.54,468.53,904.1,468.26z"/>
	<path class="st16" d="M983.31,485.18c-9.58-0.62-18.86-3.6-27.08-8.7c-0.44-0.26-0.57-0.88-0.31-1.32s0.88-0.62,1.32-0.31
		c8.88,5.54,19.08,8.48,29.54,8.57c0.48-0.04,0.97,0.44,0.97,0.97c0,0.53-0.44,0.97-0.97,0.97
		C985.64,485.27,984.45,485.23,983.31,485.18z"/>
	<path class="st16" d="M984.98,545.18c-0.09,0-0.18,0-0.22-0.04c-0.53-0.18-0.79-0.7-0.62-1.23c15.08-45.8,25.01-93.36,29.49-141.4
		c0.04-0.53,0.53-0.97,1.05-0.88c0.53,0.04,0.92,0.53,0.88,1.05c-4.48,48.17-14.42,95.86-29.58,141.79
		C985.81,544.96,985.42,545.22,984.98,545.18z"/>
	<path class="st16" d="M882.92,397.5c-0.18,0-0.35-0.09-0.48-0.18c-17.41-12.61-32.48-28.22-47.03-43.25
		c-9.89-10.24-20.13-20.83-31.16-30.59c-0.4-0.35-0.44-0.97-0.09-1.36c0.35-0.4,0.97-0.44,1.36-0.09
		c11.08,9.76,21.32,20.39,31.25,30.68c14.5,15.03,29.49,30.55,46.77,43.03c0.44,0.31,0.53,0.92,0.22,1.36
		C883.58,397.37,883.27,397.5,882.92,397.5z"/>
	<path class="st16" d="M852.46,507.86c-0.09,0-0.13,0-0.22-0.04c-0.53-0.18-0.79-0.7-0.66-1.19l45.89-149.62
		c0.18-0.53,0.7-0.79,1.19-0.66c0.53,0.18,0.79,0.7,0.66,1.19l-45.89,149.62C853.29,507.64,852.9,507.91,852.46,507.86z"/>
	<path class="st16" d="M1063.56,501.62c-0.44-0.04-0.79-0.35-0.88-0.79c-0.09-0.53,0.26-1.01,0.79-1.1
		c27.73-4.66,54.41-15.87,77.18-32.35c0.44-0.31,1.05-0.22,1.36,0.22c0.31,0.44,0.22,1.05-0.22,1.36
		c-22.99,16.66-49.97,28-77.97,32.7C1063.7,501.62,1063.61,501.62,1063.56,501.62z"/>
	<path class="st16" d="M975.97,391.39c-18.42-1.19-36.04-10.68-46.9-25.76c-0.31-0.44-0.22-1.05,0.22-1.36
		c0.44-0.31,1.01-0.22,1.36,0.22c12.48,17.27,35.03,27.21,56.17,24.66c3.08-0.35,4.35-0.84,5.41-1.19c1.71-0.62,2.86-0.92,7.25-0.48
		c0.53,0.04,0.92,0.53,0.88,1.05c-0.04,0.53-0.44,0.92-1.05,0.88c-4.18-0.44-5.01-0.13-6.42,0.35c-1.14,0.4-2.55,0.92-5.8,1.32
		C983.31,391.52,979.61,391.61,975.97,391.39z"/>
</g>
</svg>
